%!PS-Adobe-3.0
%%Creator: (MATLAB, The Mathworks, Inc. Version 9.1.0.441655 \(R2016b\). Operating System: Windows 8)
%%Title: (./best C .ps)
%%CreationDate: 2016-12-24T02:18:58
%%Pages: (atend)
%%BoundingBox:   129   258   483   534
%%LanguageLevel: 3
%%EndComments
%%BeginDefaults
%%EndDefaults
%%BeginProlog
%%EndProlog
%%BeginSetup
%%BeginResource: procset (Apache XML Graphics Std ProcSet) 1.2 0
%%Version: 1.2 0
%%Copyright: (Copyright 2001-2003,2010 The Apache Software Foundation. License terms: http://www.apache.org/licenses/LICENSE-2.0)
/bd{bind def}bind def
/ld{load def}bd
/GR/grestore ld
/M/moveto ld
/LJ/setlinejoin ld
/C/curveto ld
/f/fill ld
/LW/setlinewidth ld
/GC/setgray ld
/t/show ld
/N/newpath ld
/CT/concat ld
/cp/closepath ld
/S/stroke ld
/L/lineto ld
/CC/setcmykcolor ld
/A/ashow ld
/GS/gsave ld
/RC/setrgbcolor ld
/RM/rmoveto ld
/ML/setmiterlimit ld
/re {4 2 roll M
1 index 0 rlineto
0 exch rlineto
neg 0 rlineto
cp } bd
/_ctm matrix def
/_tm matrix def
/BT { _ctm currentmatrix pop matrix _tm copy pop 0 0 moveto } bd
/ET { _ctm setmatrix } bd
/iTm { _ctm setmatrix _tm concat } bd
/Tm { _tm astore pop iTm 0 0 moveto } bd
/ux 0.0 def
/uy 0.0 def
/F {
  /Tp exch def
  /Tf exch def
  Tf findfont Tp scalefont setfont
  /cf Tf def  /cs Tp def
} bd
/ULS {currentpoint /uy exch def /ux exch def} bd
/ULE {
  /Tcx currentpoint pop def
  gsave
  newpath
  cf findfont cs scalefont dup
  /FontMatrix get 0 get /Ts exch def /FontInfo get dup
  /UnderlinePosition get Ts mul /To exch def
  /UnderlineThickness get Ts mul /Tt exch def
  ux uy To add moveto  Tcx uy To add lineto
  Tt setlinewidth stroke
  grestore
} bd
/OLE {
  /Tcx currentpoint pop def
  gsave
  newpath
  cf findfont cs scalefont dup
  /FontMatrix get 0 get /Ts exch def /FontInfo get dup
  /UnderlinePosition get Ts mul /To exch def
  /UnderlineThickness get Ts mul /Tt exch def
  ux uy To add cs add moveto Tcx uy To add cs add lineto
  Tt setlinewidth stroke
  grestore
} bd
/SOE {
  /Tcx currentpoint pop def
  gsave
  newpath
  cf findfont cs scalefont dup
  /FontMatrix get 0 get /Ts exch def /FontInfo get dup
  /UnderlinePosition get Ts mul /To exch def
  /UnderlineThickness get Ts mul /Tt exch def
  ux uy To add cs 10 mul 26 idiv add moveto Tcx uy To add cs 10 mul 26 idiv add lineto
  Tt setlinewidth stroke
  grestore
} bd
/QT {
/Y22 exch store
/X22 exch store
/Y21 exch store
/X21 exch store
currentpoint
/Y21 load 2 mul add 3 div exch
/X21 load 2 mul add 3 div exch
/X21 load 2 mul /X22 load add 3 div
/Y21 load 2 mul /Y22 load add 3 div
/X22 load /Y22 load curveto
} bd
/SSPD {
dup length /d exch dict def
{
/v exch def
/k exch def
currentpagedevice k known {
/cpdv currentpagedevice k get def
v cpdv ne {
/upd false def
/nullv v type /nulltype eq def
/nullcpdv cpdv type /nulltype eq def
nullv nullcpdv or
{
/upd true def
} {
/sametype v type cpdv type eq def
sametype {
v type /arraytype eq {
/vlen v length def
/cpdvlen cpdv length def
vlen cpdvlen eq {
0 1 vlen 1 sub {
/i exch def
/obj v i get def
/cpdobj cpdv i get def
obj cpdobj ne {
/upd true def
exit
} if
} for
} {
/upd true def
} ifelse
} {
v type /dicttype eq {
v {
/dv exch def
/dk exch def
/cpddv cpdv dk get def
dv cpddv ne {
/upd true def
exit
} if
} forall
} {
/upd true def
} ifelse
} ifelse
} if
} ifelse
upd true eq {
d k v put
} if
} if
} if
} forall
d length 0 gt {
d setpagedevice
} if
} bd
/RE { % /NewFontName [NewEncodingArray] /FontName RE -
  findfont dup length dict begin
  {
    1 index /FID ne
    {def} {pop pop} ifelse
  } forall
  /Encoding exch def
  /FontName 1 index def
  currentdict definefont pop
  end
} bind def
%%EndResource
%%BeginResource: procset (Apache XML Graphics EPS ProcSet) 1.0 0
%%Version: 1.0 0
%%Copyright: (Copyright 2002-2003 The Apache Software Foundation. License terms: http://www.apache.org/licenses/LICENSE-2.0)
/BeginEPSF { %def
/b4_Inc_state save def         % Save state for cleanup
/dict_count countdictstack def % Count objects on dict stack
/op_count count 1 sub def      % Count objects on operand stack
userdict begin                 % Push userdict on dict stack
/showpage { } def              % Redefine showpage, { } = null proc
0 setgray 0 setlinecap         % Prepare graphics state
1 setlinewidth 0 setlinejoin
10 setmiterlimit [ ] 0 setdash newpath
/languagelevel where           % If level not equal to 1 then
{pop languagelevel             % set strokeadjust and
1 ne                           % overprint to their defaults.
{false setstrokeadjust false setoverprint
} if
} if
} bd
/EndEPSF { %def
count op_count sub {pop} repeat            % Clean up stacks
countdictstack dict_count sub {end} repeat
b4_Inc_state restore
} bd
%%EndResource
%FOPBeginFontDict
%%IncludeResource: font Courier-Bold
%%IncludeResource: font Helvetica
%%IncludeResource: font Courier-BoldOblique
%%IncludeResource: font Courier-Oblique
%%IncludeResource: font Times-Roman
%%IncludeResource: font Helvetica-BoldOblique
%%IncludeResource: font Helvetica-Bold
%%IncludeResource: font Helvetica-Oblique
%%IncludeResource: font Times-BoldItalic
%%IncludeResource: font Courier
%%IncludeResource: font Times-Italic
%%IncludeResource: font Times-Bold
%%IncludeResource: font Symbol
%%IncludeResource: font ZapfDingbats
%FOPEndFontDict
%%BeginResource: encoding WinAnsiEncoding
/WinAnsiEncoding [
/.notdef /.notdef /.notdef /.notdef /.notdef
/.notdef /.notdef /.notdef /.notdef /.notdef
/.notdef /.notdef /.notdef /.notdef /.notdef
/.notdef /.notdef /.notdef /.notdef /.notdef
/.notdef /.notdef /.notdef /.notdef /.notdef
/.notdef /.notdef /.notdef /.notdef /.notdef
/.notdef /.notdef /space /exclam /quotedbl
/numbersign /dollar /percent /ampersand /quotesingle
/parenleft /parenright /asterisk /plus /comma
/hyphen /period /slash /zero /one
/two /three /four /five /six
/seven /eight /nine /colon /semicolon
/less /equal /greater /question /at
/A /B /C /D /E
/F /G /H /I /J
/K /L /M /N /O
/P /Q /R /S /T
/U /V /W /X /Y
/Z /bracketleft /backslash /bracketright /asciicircum
/underscore /quoteleft /a /b /c
/d /e /f /g /h
/i /j /k /l /m
/n /o /p /q /r
/s /t /u /v /w
/x /y /z /braceleft /bar
/braceright /asciitilde /bullet /Euro /bullet
/quotesinglbase /florin /quotedblbase /ellipsis /dagger
/daggerdbl /circumflex /perthousand /Scaron /guilsinglleft
/OE /bullet /Zcaron /bullet /bullet
/quoteleft /quoteright /quotedblleft /quotedblright /bullet
/endash /emdash /asciitilde /trademark /scaron
/guilsinglright /oe /bullet /zcaron /Ydieresis
/space /exclamdown /cent /sterling /currency
/yen /brokenbar /section /dieresis /copyright
/ordfeminine /guillemotleft /logicalnot /sfthyphen /registered
/macron /degree /plusminus /twosuperior /threesuperior
/acute /mu /paragraph /middot /cedilla
/onesuperior /ordmasculine /guillemotright /onequarter /onehalf
/threequarters /questiondown /Agrave /Aacute /Acircumflex
/Atilde /Adieresis /Aring /AE /Ccedilla
/Egrave /Eacute /Ecircumflex /Edieresis /Igrave
/Iacute /Icircumflex /Idieresis /Eth /Ntilde
/Ograve /Oacute /Ocircumflex /Otilde /Odieresis
/multiply /Oslash /Ugrave /Uacute /Ucircumflex
/Udieresis /Yacute /Thorn /germandbls /agrave
/aacute /acircumflex /atilde /adieresis /aring
/ae /ccedilla /egrave /eacute /ecircumflex
/edieresis /igrave /iacute /icircumflex /idieresis
/eth /ntilde /ograve /oacute /ocircumflex
/otilde /odieresis /divide /oslash /ugrave
/uacute /ucircumflex /udieresis /yacute /thorn
/ydieresis
] def
%%EndResource
%FOPBeginFontReencode
/Courier-Bold findfont
dup length dict begin
  {1 index /FID ne {def} {pop pop} ifelse} forall
  /Encoding WinAnsiEncoding def
  currentdict
end
/Courier-Bold exch definefont pop
/Helvetica findfont
dup length dict begin
  {1 index /FID ne {def} {pop pop} ifelse} forall
  /Encoding WinAnsiEncoding def
  currentdict
end
/Helvetica exch definefont pop
/Courier-BoldOblique findfont
dup length dict begin
  {1 index /FID ne {def} {pop pop} ifelse} forall
  /Encoding WinAnsiEncoding def
  currentdict
end
/Courier-BoldOblique exch definefont pop
/Courier-Oblique findfont
dup length dict begin
  {1 index /FID ne {def} {pop pop} ifelse} forall
  /Encoding WinAnsiEncoding def
  currentdict
end
/Courier-Oblique exch definefont pop
/Times-Roman findfont
dup length dict begin
  {1 index /FID ne {def} {pop pop} ifelse} forall
  /Encoding WinAnsiEncoding def
  currentdict
end
/Times-Roman exch definefont pop
/Helvetica-BoldOblique findfont
dup length dict begin
  {1 index /FID ne {def} {pop pop} ifelse} forall
  /Encoding WinAnsiEncoding def
  currentdict
end
/Helvetica-BoldOblique exch definefont pop
/Helvetica-Bold findfont
dup length dict begin
  {1 index /FID ne {def} {pop pop} ifelse} forall
  /Encoding WinAnsiEncoding def
  currentdict
end
/Helvetica-Bold exch definefont pop
/Helvetica-Oblique findfont
dup length dict begin
  {1 index /FID ne {def} {pop pop} ifelse} forall
  /Encoding WinAnsiEncoding def
  currentdict
end
/Helvetica-Oblique exch definefont pop
/Times-BoldItalic findfont
dup length dict begin
  {1 index /FID ne {def} {pop pop} ifelse} forall
  /Encoding WinAnsiEncoding def
  currentdict
end
/Times-BoldItalic exch definefont pop
/Courier findfont
dup length dict begin
  {1 index /FID ne {def} {pop pop} ifelse} forall
  /Encoding WinAnsiEncoding def
  currentdict
end
/Courier exch definefont pop
/Times-Italic findfont
dup length dict begin
  {1 index /FID ne {def} {pop pop} ifelse} forall
  /Encoding WinAnsiEncoding def
  currentdict
end
/Times-Italic exch definefont pop
/Times-Bold findfont
dup length dict begin
  {1 index /FID ne {def} {pop pop} ifelse} forall
  /Encoding WinAnsiEncoding def
  currentdict
end
/Times-Bold exch definefont pop
%FOPEndFontReencode
%%EndSetup
%%Page: 1 1
%%PageBoundingBox: 0 0 612 792
%%BeginPageSetup
<<
/PageSize [612 792]
/ImagingBBox null
>> setpagedevice
[1 0 0 -1 0 792] CT
%%EndPageSetup
GS
[0.75 0 0 0.75 96 238.5] CT
0.997 GC
N
0 0 560 420 re
f
GR
GS
[0.75 0 0 0.75 96 238.5] CT
0.997 GC
N
0 0 560 420 re
f
GR
GS
[0.75 0 0 0.75 96 238.5] CT
0.997 GC
N
73 374 M
507 374 L
507 31 L
73 31 L
cp
f
GR
GS
[0.75 0 0 0.75 96 238.5] CT
0 GC
2 setlinecap
1 LJ
0.667 LW
N
73 374 M
507 374 L
S
GR
GS
[0.75 0 0 0.75 96 238.5] CT
0 GC
2 setlinecap
1 LJ
0.667 LW
N
73 31 M
507 31 L
S
GR
GS
[0.75 0 0 0.75 96 238.5] CT
0 GC
2 setlinecap
1 LJ
0.667 LW
N
73 374 M
73 369.66 L
S
GR
GS
[0.75 0 0 0.75 96 238.5] CT
0 GC
2 setlinecap
1 LJ
0.667 LW
N
121.222 374 M
121.222 369.66 L
S
GR
GS
[0.75 0 0 0.75 96 238.5] CT
0 GC
2 setlinecap
1 LJ
0.667 LW
N
169.444 374 M
169.444 369.66 L
S
GR
GS
[0.75 0 0 0.75 96 238.5] CT
0 GC
2 setlinecap
1 LJ
0.667 LW
N
217.667 374 M
217.667 369.66 L
S
GR
GS
[0.75 0 0 0.75 96 238.5] CT
0 GC
2 setlinecap
1 LJ
0.667 LW
N
265.889 374 M
265.889 369.66 L
S
GR
GS
[0.75 0 0 0.75 96 238.5] CT
0 GC
2 setlinecap
1 LJ
0.667 LW
N
314.111 374 M
314.111 369.66 L
S
GR
GS
[0.75 0 0 0.75 96 238.5] CT
0 GC
2 setlinecap
1 LJ
0.667 LW
N
362.333 374 M
362.333 369.66 L
S
GR
GS
[0.75 0 0 0.75 96 238.5] CT
0 GC
2 setlinecap
1 LJ
0.667 LW
N
410.556 374 M
410.556 369.66 L
S
GR
GS
[0.75 0 0 0.75 96 238.5] CT
0 GC
2 setlinecap
1 LJ
0.667 LW
N
458.778 374 M
458.778 369.66 L
S
GR
GS
[0.75 0 0 0.75 96 238.5] CT
0 GC
2 setlinecap
1 LJ
0.667 LW
N
507 374 M
507 369.66 L
S
GR
GS
[0.75 0 0 0.75 96 238.5] CT
0 GC
2 setlinecap
1 LJ
0.667 LW
N
73 31 M
73 35.34 L
S
GR
GS
[0.75 0 0 0.75 96 238.5] CT
0 GC
2 setlinecap
1 LJ
0.667 LW
N
121.222 31 M
121.222 35.34 L
S
GR
GS
[0.75 0 0 0.75 96 238.5] CT
0 GC
2 setlinecap
1 LJ
0.667 LW
N
169.444 31 M
169.444 35.34 L
S
GR
GS
[0.75 0 0 0.75 96 238.5] CT
0 GC
2 setlinecap
1 LJ
0.667 LW
N
217.667 31 M
217.667 35.34 L
S
GR
GS
[0.75 0 0 0.75 96 238.5] CT
0 GC
2 setlinecap
1 LJ
0.667 LW
N
265.889 31 M
265.889 35.34 L
S
GR
GS
[0.75 0 0 0.75 96 238.5] CT
0 GC
2 setlinecap
1 LJ
0.667 LW
N
314.111 31 M
314.111 35.34 L
S
GR
GS
[0.75 0 0 0.75 96 238.5] CT
0 GC
2 setlinecap
1 LJ
0.667 LW
N
362.333 31 M
362.333 35.34 L
S
GR
GS
[0.75 0 0 0.75 96 238.5] CT
0 GC
2 setlinecap
1 LJ
0.667 LW
N
410.556 31 M
410.556 35.34 L
S
GR
GS
[0.75 0 0 0.75 96 238.5] CT
0 GC
2 setlinecap
1 LJ
0.667 LW
N
458.778 31 M
458.778 35.34 L
S
GR
GS
[0.75 0 0 0.75 96 238.5] CT
0 GC
2 setlinecap
1 LJ
0.667 LW
N
507 31 M
507 35.34 L
S
GR
GS
[0.75 0 0 0.75 150.74999 523.00001] CT
0 GC
/Helvetica 13.333 F
GS
[1 0 0 1 0 0] CT
-11.5 14 moveto 
1 -1 scale
(-0.6) t 
GR
GR
GS
[0.75 0 0 0.75 186.91667 523.00001] CT
0 GC
/Helvetica 13.333 F
GS
[1 0 0 1 0 0] CT
-11.5 14 moveto 
1 -1 scale
(-0.5) t 
GR
GR
GS
[0.75 0 0 0.75 223.08333 523.00001] CT
0 GC
/Helvetica 13.333 F
GS
[1 0 0 1 0 0] CT
-11.5 14 moveto 
1 -1 scale
(-0.4) t 
GR
GR
GS
[0.75 0 0 0.75 259.24999 523.00001] CT
0 GC
/Helvetica 13.333 F
GS
[1 0 0 1 0 0] CT
-11.5 14 moveto 
1 -1 scale
(-0.3) t 
GR
GR
GS
[0.75 0 0 0.75 295.41666 523.00001] CT
0 GC
/Helvetica 13.333 F
GS
[1 0 0 1 0 0] CT
-11.5 14 moveto 
1 -1 scale
(-0.2) t 
GR
GR
GS
[0.75 0 0 0.75 331.58334 523.00001] CT
0 GC
/Helvetica 13.333 F
GS
[1 0 0 1 0 0] CT
-11.5 14 moveto 
1 -1 scale
(-0.1) t 
GR
GR
GS
[0.75 0 0 0.75 367.75001 523.00001] CT
0 GC
/Helvetica 13.333 F
GS
[1 0 0 1 0 0] CT
-4 14 moveto 
1 -1 scale
(0) t 
GR
GR
GS
[0.75 0 0 0.75 403.91666 523.00001] CT
0 GC
/Helvetica 13.333 F
GS
[1 0 0 1 0 0] CT
-9.5 14 moveto 
1 -1 scale
(0.1) t 
GR
GR
GS
[0.75 0 0 0.75 440.08333 523.00001] CT
0 GC
/Helvetica 13.333 F
GS
[1 0 0 1 0 0] CT
-9.5 14 moveto 
1 -1 scale
(0.2) t 
GR
GR
GS
[0.75 0 0 0.75 476.25 523.00001] CT
0 GC
/Helvetica 13.333 F
GS
[1 0 0 1 0 0] CT
-9.5 14 moveto 
1 -1 scale
(0.3) t 
GR
GR
GS
[0.75 0 0 0.75 96 238.5] CT
0 GC
2 setlinecap
1 LJ
0.667 LW
N
73 374 M
73 31 L
S
GR
GS
[0.75 0 0 0.75 96 238.5] CT
0 GC
2 setlinecap
1 LJ
0.667 LW
N
507 374 M
507 31 L
S
GR
GS
[0.75 0 0 0.75 96 238.5] CT
0 GC
2 setlinecap
1 LJ
0.667 LW
N
73 374 M
77.34 374 L
S
GR
GS
[0.75 0 0 0.75 96 238.5] CT
0 GC
2 setlinecap
1 LJ
0.667 LW
N
73 325 M
77.34 325 L
S
GR
GS
[0.75 0 0 0.75 96 238.5] CT
0 GC
2 setlinecap
1 LJ
0.667 LW
N
73 276 M
77.34 276 L
S
GR
GS
[0.75 0 0 0.75 96 238.5] CT
0 GC
2 setlinecap
1 LJ
0.667 LW
N
73 227 M
77.34 227 L
S
GR
GS
[0.75 0 0 0.75 96 238.5] CT
0 GC
2 setlinecap
1 LJ
0.667 LW
N
73 178 M
77.34 178 L
S
GR
GS
[0.75 0 0 0.75 96 238.5] CT
0 GC
2 setlinecap
1 LJ
0.667 LW
N
73 129 M
77.34 129 L
S
GR
GS
[0.75 0 0 0.75 96 238.5] CT
0 GC
2 setlinecap
1 LJ
0.667 LW
N
73 80 M
77.34 80 L
S
GR
GS
[0.75 0 0 0.75 96 238.5] CT
0 GC
2 setlinecap
1 LJ
0.667 LW
N
73 31 M
77.34 31 L
S
GR
GS
[0.75 0 0 0.75 96 238.5] CT
0 GC
2 setlinecap
1 LJ
0.667 LW
N
507 374 M
502.66 374 L
S
GR
GS
[0.75 0 0 0.75 96 238.5] CT
0 GC
2 setlinecap
1 LJ
0.667 LW
N
507 325 M
502.66 325 L
S
GR
GS
[0.75 0 0 0.75 96 238.5] CT
0 GC
2 setlinecap
1 LJ
0.667 LW
N
507 276 M
502.66 276 L
S
GR
GS
[0.75 0 0 0.75 96 238.5] CT
0 GC
2 setlinecap
1 LJ
0.667 LW
N
507 227 M
502.66 227 L
S
GR
GS
[0.75 0 0 0.75 96 238.5] CT
0 GC
2 setlinecap
1 LJ
0.667 LW
N
507 178 M
502.66 178 L
S
GR
GS
[0.75 0 0 0.75 96 238.5] CT
0 GC
2 setlinecap
1 LJ
0.667 LW
N
507 129 M
502.66 129 L
S
GR
GS
[0.75 0 0 0.75 96 238.5] CT
0 GC
2 setlinecap
1 LJ
0.667 LW
N
507 80 M
502.66 80 L
S
GR
GS
[0.75 0 0 0.75 96 238.5] CT
0 GC
2 setlinecap
1 LJ
0.667 LW
N
507 31 M
502.66 31 L
S
GR
GS
[0.75 0 0 0.75 146.75 519] CT
0 GC
/Helvetica 13.333 F
GS
[1 0 0 1 0 0] CT
-23 5.5 moveto 
1 -1 scale
(-0.8) t 
GR
GR
GS
[0.75 0 0 0.75 146.75 482.25] CT
0 GC
/Helvetica 13.333 F
GS
[1 0 0 1 0 0] CT
-23 5.5 moveto 
1 -1 scale
(-0.6) t 
GR
GR
GS
[0.75 0 0 0.75 146.75 445.5] CT
0 GC
/Helvetica 13.333 F
GS
[1 0 0 1 0 0] CT
-23 5.5 moveto 
1 -1 scale
(-0.4) t 
GR
GR
GS
[0.75 0 0 0.75 146.75 408.75] CT
0 GC
/Helvetica 13.333 F
GS
[1 0 0 1 0 0] CT
-23 5.5 moveto 
1 -1 scale
(-0.2) t 
GR
GR
GS
[0.75 0 0 0.75 146.75 372] CT
0 GC
/Helvetica 13.333 F
GS
[1 0 0 1 0 0] CT
-8 5.5 moveto 
1 -1 scale
(0) t 
GR
GR
GS
[0.75 0 0 0.75 146.75 335.25] CT
0 GC
/Helvetica 13.333 F
GS
[1 0 0 1 0 0] CT
-19 5.5 moveto 
1 -1 scale
(0.2) t 
GR
GR
GS
[0.75 0 0 0.75 146.75 298.5] CT
0 GC
/Helvetica 13.333 F
GS
[1 0 0 1 0 0] CT
-19 5.5 moveto 
1 -1 scale
(0.4) t 
GR
GR
GS
[0.75 0 0 0.75 146.75 261.75] CT
0 GC
/Helvetica 13.333 F
GS
[1 0 0 1 0 0] CT
-19 5.5 moveto 
1 -1 scale
(0.6) t 
GR
GR
GS
[0.75 0 0 0.75 310.25006 294.09423] CT
0 GC
10.0 ML
1.333 LW
N
0 -5 M
0 5 L
-5 0 M
5 0 L
S
GR
GS
[0.75 0 0 0.75 241.91677 285.49785] CT
0 GC
10.0 ML
1.333 LW
N
0 -5 M
0 5 L
-5 0 M
5 0 L
S
GR
GS
[0.75 0 0 0.75 185.25011 306.98906] CT
0 GC
10.0 ML
1.333 LW
N
0 -5 M
0 5 L
-5 0 M
5 0 L
S
GR
GS
[0.75 0 0 0.75 151.91674 351.04607] CT
0 GC
10.0 ML
1.333 LW
N
0 -5 M
0 5 L
-5 0 M
5 0 L
S
GR
GS
[0.75 0 0 0.75 180.25008 403.69963] CT
0 GC
10.0 ML
1.333 LW
N
0 -5 M
0 5 L
-5 0 M
5 0 L
S
GR
GS
[0.75 0 0 0.75 261.91657 410.14687] CT
0 GC
10.0 ML
1.333 LW
N
0 -5 M
0 5 L
-5 0 M
5 0 L
S
GR
GS
[0.75 0 0 0.75 310.25006 380.0592] CT
0 GC
10.0 ML
1.333 LW
N
0 -5 M
0 5 L
-5 0 M
5 0 L
S
GR
GS
[0.75 0 0 0.75 346.91666 345.67322] CT
0 GC
10.0 ML
1.333 LW
N
0 -5 M
0 5 L
-5 0 M
5 0 L
S
GR
GS
[0.75 0 0 0.75 341.91666 322.03286] CT
0 GC
10.0 ML
1.333 LW
N
0 -5 M
0 5 L
-5 0 M
5 0 L
S
GR
GS
[0.75 0 0 0.75 260.25 308.06364] CT
0 GC
10.0 ML
1.333 LW
N
0 -5 M
0 5 L
-5 0 M
5 0 L
S
GR
GS
[0.75 0 0 0.75 216.91656 334.9277] CT
0 GC
10.0 ML
1.333 LW
N
0 -5 M
0 5 L
-5 0 M
5 0 L
S
GR
GS
[0.75 0 0 0.75 208.58339 370.38816] CT
0 GC
10.0 ML
1.333 LW
N
0 -5 M
0 5 L
-5 0 M
5 0 L
S
GR
GS
[0.75 0 0 0.75 250.24992 377.91008] CT
0 GC
10.0 ML
1.333 LW
N
0 -5 M
0 5 L
-5 0 M
5 0 L
S
GR
GS
[0.75 0 0 0.75 278.58325 361.79165] CT
0 GC
10.0 ML
1.333 LW
N
0 -5 M
0 5 L
-5 0 M
5 0 L
S
GR
GS
[0.75 0 0 0.75 288.58333 334.9277] CT
0 GC
10.0 ML
1.333 LW
N
0 -5 M
0 5 L
-5 0 M
5 0 L
S
GR
GS
[0.75 0 0 0.75 243.58333 342.44951] CT
0 GC
10.0 ML
1.333 LW
N
0 -5 M
0 5 L
-5 0 M
5 0 L
S
GR
GS
[0.75 0 0 0.75 183.58317 357.49341] CT
0 GC
10.0 ML
1.333 LW
N
0 -5 M
0 5 L
-5 0 M
5 0 L
S
GR
GS
[0.75 0 0 0.75 228.58319 388.65571] CT
0 GC
10.0 ML
1.333 LW
N
0 -5 M
0 5 L
-5 0 M
5 0 L
S
GR
GS
[0.75 0 0 0.75 313.58318 348.89693] CT
0 GC
10.0 ML
1.333 LW
N
0 -5 M
0 5 L
-5 0 M
5 0 L
S
GR
GS
[0.75 0 0 0.75 296.9165 312.36191] CT
0 GC
10.0 ML
1.333 LW
N
0 -5 M
0 5 L
-5 0 M
5 0 L
S
GR
GS
[0.75 0 0 0.75 320.25014 415.51972] CT
0 GC
10.0 ML
1.333 LW
N
0 -5 M
0 5 L
-5 0 M
5 0 L
S
GR
GS
[0.75 0 0 0.75 368.58334 395.10307] CT
0 GC
10.0 ML
1.333 LW
N
0 -5 M
0 5 L
-5 0 M
5 0 L
S
GR
GS
[0.75 0 0 0.75 411.91674 372.53728] CT
0 GC
10.0 ML
1.333 LW
N
0 -5 M
0 5 L
-5 0 M
5 0 L
S
GR
GS
[0.75 0 0 0.75 320.25014 355.34429] CT
0 GC
10.0 ML
1.333 LW
N
0 -5 M
0 5 L
-5 0 M
5 0 L
S
GR
GS
[0.75 0 0 0.75 313.58318 358.56799] CT
0 GC
10.0 ML
1.333 LW
N
0 -5 M
0 5 L
-5 0 M
5 0 L
S
GR
GS
[0.75 0 0 0.75 280.25018 360.71711] CT
0 GC
10.0 ML
1.333 LW
N
0 -5 M
0 5 L
-5 0 M
5 0 L
S
GR
GS
[0.75 0 0 0.75 258.58345 339.2258] CT
0 GC
10.0 ML
1.333 LW
N
0 -5 M
0 5 L
-5 0 M
5 0 L
S
GR
GS
[0.75 0 0 0.75 260.25 336.00228] CT
0 GC
10.0 ML
1.333 LW
N
0 -5 M
0 5 L
-5 0 M
5 0 L
S
GR
GS
[0.75 0 0 0.75 268.58316 315.58544] CT
0 GC
10.0 ML
1.333 LW
N
0 -5 M
0 5 L
-5 0 M
5 0 L
S
GR
GS
[0.75 0 0 0.75 250.24992 317.73458] CT
0 GC
10.0 ML
1.333 LW
N
0 -5 M
0 5 L
-5 0 M
5 0 L
S
GR
GS
[0.75 0 0 0.75 223.58315 323.10744] CT
0 GC
10.0 ML
1.333 LW
N
0 -5 M
0 5 L
-5 0 M
5 0 L
S
GR
GS
[0.75 0 0 0.75 210.24996 342.44951] CT
0 GC
10.0 ML
1.333 LW
N
0 -5 M
0 5 L
-5 0 M
5 0 L
S
GR
GS
[0.75 0 0 0.75 196.91675 357.49341] CT
0 GC
10.0 ML
1.333 LW
N
0 -5 M
0 5 L
-5 0 M
5 0 L
S
GR
GS
[0.75 0 0 0.75 245.24987 363.9408] CT
0 GC
10.0 ML
1.333 LW
N
0 -5 M
0 5 L
-5 0 M
5 0 L
S
GR
GS
[0.75 0 0 0.75 270.25009 363.9408] CT
0 GC
10.0 ML
1.333 LW
N
0 -5 M
0 5 L
-5 0 M
5 0 L
S
GR
GS
[0.75 0 0 0.75 275.25013 353.19521] CT
0 GC
10.0 ML
1.333 LW
N
0 -5 M
0 5 L
-5 0 M
5 0 L
S
GR
GS
[0.75 0 0 0.75 306.91658 323.10744] CT
0 GC
10.0 ML
1.333 LW
N
0 -5 M
0 5 L
-5 0 M
5 0 L
S
GR
GS
[0.75 0 0 0.75 326.91676 316.66001] CT
0 GC
10.0 ML
1.333 LW
N
0 -5 M
0 5 L
-5 0 M
5 0 L
S
GR
GS
[0.75 0 0 0.75 353.58334 308.06364] CT
0 GC
10.0 ML
1.333 LW
N
0 -5 M
0 5 L
-5 0 M
5 0 L
S
GR
GS
[0.75 0 0 0.75 321.91672 290.8707] CT
0 GC
10.0 ML
1.333 LW
N
0 -5 M
0 5 L
-5 0 M
5 0 L
S
GR
GS
[0.75 0 0 0.75 283.58329 290.8707] CT
0 GC
10.0 ML
1.333 LW
N
0 -5 M
0 5 L
-5 0 M
5 0 L
S
GR
GS
[0.75 0 0 0.75 245.24987 295.1688] CT
0 GC
10.0 ML
1.333 LW
N
0 -5 M
0 5 L
-5 0 M
5 0 L
S
GR
GS
[0.75 0 0 0.75 218.58348 306.98906] CT
0 GC
10.0 ML
1.333 LW
N
0 -5 M
0 5 L
-5 0 M
5 0 L
S
GR
GS
[0.75 0 0 0.75 183.58317 331.70399] CT
0 GC
10.0 ML
1.333 LW
N
0 -5 M
0 5 L
-5 0 M
5 0 L
S
GR
GS
[0.75 0 0 0.75 171.91654 369.31359] CT
0 GC
10.0 ML
1.333 LW
N
0 -5 M
0 5 L
-5 0 M
5 0 L
S
GR
GS
[0.75 0 0 0.75 185.25011 395.10307] CT
0 GC
10.0 ML
1.333 LW
N
0 -5 M
0 5 L
-5 0 M
5 0 L
S
GR
GS
[0.75 0 0 0.75 190.25015 398.32678] CT
0 GC
10.0 ML
1.333 LW
N
0 -5 M
0 5 L
-5 0 M
5 0 L
S
GR
GS
[0.75 0 0 0.75 236.91672 397.25221] CT
0 GC
10.0 ML
1.333 LW
N
0 -5 M
0 5 L
-5 0 M
5 0 L
S
GR
GS
[0.75 0 0 0.75 270.25009 387.58114] CT
0 GC
10.0 ML
1.333 LW
N
0 -5 M
0 5 L
-5 0 M
5 0 L
S
GR
GS
[0.75 0 0 0.75 286.91678 386.50659] CT
0 GC
10.0 ML
1.333 LW
N
0 -5 M
0 5 L
-5 0 M
5 0 L
S
GR
GS
[0.75 0 0 0.75 300.24998 378.98465] CT
0 GC
10.0 ML
1.333 LW
N
0 -5 M
0 5 L
-5 0 M
5 0 L
S
GR
GS
[0.75 0 0 0.75 311.91662 373.61184] CT
0 GC
10.0 ML
1.333 LW
N
0 -5 M
0 5 L
-5 0 M
5 0 L
S
GR
GS
[0.75 0 0 0.75 326.91676 361.79165] CT
0 GC
10.0 ML
1.333 LW
N
0 -5 M
0 5 L
-5 0 M
5 0 L
S
GR
GS
[0.75 0 0 0.75 336.91665 346.74779] CT
0 GC
10.0 ML
1.333 LW
N
0 -5 M
0 5 L
-5 0 M
5 0 L
S
GR
GS
[0.75 0 0 0.75 336.91665 320.95829] CT
0 GC
10.0 ML
1.333 LW
N
0 -5 M
0 5 L
-5 0 M
5 0 L
S
GR
GS
[0.75 0 0 0.75 306.91658 316.66001] CT
0 GC
10.0 ML
1.333 LW
N
0 -5 M
0 5 L
-5 0 M
5 0 L
S
GR
GS
[0.75 0 0 0.75 298.58343 336.00228] CT
0 GC
10.0 ML
1.333 LW
N
0 -5 M
0 5 L
-5 0 M
5 0 L
S
GR
GS
[0.75 0 0 0.75 316.91666 381.13377] CT
0 GC
10.0 ML
1.333 LW
N
0 -5 M
0 5 L
-5 0 M
5 0 L
S
GR
GS
[0.75 0 0 0.75 356.91666 359.64253] CT
0 GC
10.0 ML
1.333 LW
N
0 -5 M
0 5 L
-5 0 M
5 0 L
S
GR
GS
[0.75 0 0 0.75 228.37487 365.92874] CT
0 GC
10.0 ML
1.333 LW
N
0 -5 M
0 5 L
-5 0 M
5 0 L
S
GR
GS
[0.75 0 0 0.75 229.87507 347.87601] CT
0 GC
10.0 ML
1.333 LW
N
0 -5 M
0 5 L
-5 0 M
5 0 L
S
GR
GS
[0.75 0 0 0.75 240.37498 324.55814] CT
0 GC
10.0 ML
1.333 LW
N
0 -5 M
0 5 L
-5 0 M
5 0 L
S
GR
GS
[0.75 0 0 0.75 239.62487 305.00107] CT
0 GC
10.0 ML
1.333 LW
N
0 -5 M
0 5 L
-5 0 M
5 0 L
S
GR
GS
[0.75 0 0 0.75 217.87498 384.73354] CT
0 GC
10.0 ML
1.333 LW
N
0 -5 M
0 5 L
-5 0 M
5 0 L
S
GR
GS
[0.75 0 0 0.75 187.12498 377.96381] CT
0 GC
10.0 ML
1.333 LW
N
0 -5 M
0 5 L
-5 0 M
5 0 L
S
GR
GS
[0.75 0 0 0.75 259.87495 389.9989] CT
0 GC
10.0 ML
1.333 LW
N
0 -5 M
0 5 L
-5 0 M
5 0 L
S
GR
GS
[0.75 0 0 0.75 253.12517 405.79493] CT
0 GC
10.0 ML
1.333 LW
N
0 -5 M
0 5 L
-5 0 M
5 0 L
S
GR
GS
[0.75 0 0 0.75 234.37493 425.352] CT
0 GC
10.0 ML
1.333 LW
N
0 -5 M
0 5 L
-5 0 M
5 0 L
S
GR
GS
[0.75 0 0 0.75 238.87515 444.90905] CT
0 GC
10.0 ML
1.333 LW
N
0 -5 M
0 5 L
-5 0 M
5 0 L
S
GR
GS
[0.75 0 0 0.75 269.62513 371.19408] CT
0 GC
10.0 ML
1.333 LW
N
0 -5 M
0 5 L
-5 0 M
5 0 L
S
GR
GS
[0.75 0 0 0.75 303.37514 356.15022] CT
0 GC
10.0 ML
1.333 LW
N
0 -5 M
0 5 L
-5 0 M
5 0 L
S
GR
GS
[0.75 0 0 0.75 278.62485 345.61956] CT
0 GC
10.0 ML
1.333 LW
N
0 -5 M
0 5 L
-5 0 M
5 0 L
S
GR
GS
[0.75 0 0 0.75 277.12501 329.82349] CT
0 GC
10.0 ML
1.333 LW
N
0 -5 M
0 5 L
-5 0 M
5 0 L
S
GR
GS
[0.75 0 0 0.75 287.62492 302.74444] CT
0 GC
10.0 ML
1.333 LW
N
0 -5 M
0 5 L
-5 0 M
5 0 L
S
GR
GS
[0.75 0 0 0.75 289.87484 317.78842] CT
0 GC
10.0 ML
1.333 LW
N
0 -5 M
0 5 L
-5 0 M
5 0 L
S
GR
GS
[0.75 0 0 0.75 320.62484 332.08013] CT
0 GC
10.0 ML
1.333 LW
N
0 -5 M
0 5 L
-5 0 M
5 0 L
S
GR
GS
[0.75 0 0 0.75 292.87486 366.68091] CT
0 GC
10.0 ML
1.333 LW
N
0 -5 M
0 5 L
-5 0 M
5 0 L
S
GR
GS
[0.75 0 0 0.75 332.625 332.83222] CT
0 GC
10.0 ML
1.333 LW
N
0 -5 M
0 5 L
-5 0 M
5 0 L
S
GR
GS
[0.75 0 0 0.75 353.625 324.55814] CT
0 GC
10.0 ML
1.333 LW
N
0 -5 M
0 5 L
-5 0 M
5 0 L
S
GR
GS
[0.75 0 0 0.75 374.625 298.23136] CT
0 GC
10.0 ML
1.333 LW
N
0 -5 M
0 5 L
-5 0 M
5 0 L
S
GR
GS
[0.75 0 0 0.75 354.37498 294.47036] CT
0 GC
10.0 ML
1.333 LW
N
0 -5 M
0 5 L
-5 0 M
5 0 L
S
GR
GS
[0.75 0 0 0.75 344.625 311.0187] CT
0 GC
10.0 ML
1.333 LW
N
0 -5 M
0 5 L
-5 0 M
5 0 L
S
GR
GS
[0.75 0 0 0.75 320.62484 302.74444] CT
0 GC
10.0 ML
1.333 LW
N
0 -5 M
0 5 L
-5 0 M
5 0 L
S
GR
GS
[0.75 0 0 0.75 232.125 452.43086] CT
0 GC
10.0 ML
1.333 LW
N
0 -5 M
0 5 L
-5 0 M
5 0 L
S
GR
GS
[0.75 0 0 0.75 224.62513 436.63479] CT
0 GC
10.0 ML
1.333 LW
N
0 -5 M
0 5 L
-5 0 M
5 0 L
S
GR
GS
[0.75 0 0 0.75 239.62487 410.3082] CT
0 GC
10.0 ML
1.333 LW
N
0 -5 M
0 5 L
-5 0 M
5 0 L
S
GR
GS
[0.75 0 0 0.75 209.625 441.14806] CT
0 GC
10.0 ML
1.333 LW
N
0 -5 M
0 5 L
-5 0 M
5 0 L
S
GR
GS
[0.75 0 0 0.75 193.87513 464.46595] CT
0 GC
10.0 ML
1.333 LW
N
0 -5 M
0 5 L
-5 0 M
5 0 L
S
GR
GS
[0.75 0 0 0.75 219.37517 457.69622] CT
0 GC
10.0 ML
1.333 LW
N
0 -5 M
0 5 L
-5 0 M
5 0 L
S
GR
GS
[0.75 0 0 0.75 336.37498 294.47036] CT
0 GC
10.0 ML
1.333 LW
N
0 -5 M
0 5 L
-5 0 M
5 0 L
S
GR
GS
[0.75 0 0 0.75 350.625 278.6743] CT
0 GC
10.0 ML
1.333 LW
N
0 -5 M
0 5 L
-5 0 M
5 0 L
S
GR
GS
[0.75 0 0 0.75 376.875 276.41785] CT
0 GC
10.0 ML
1.333 LW
N
0 -5 M
0 5 L
-5 0 M
5 0 L
S
GR
GS
[0.75 0 0 0.75 390.375 270.40022] CT
0 GC
10.0 ML
1.333 LW
N
0 -5 M
0 5 L
-5 0 M
5 0 L
S
GR
GS
[0.75 0 0 0.75 365.625 290.70937] CT
0 GC
10.0 ML
1.333 LW
N
0 -5 M
0 5 L
-5 0 M
5 0 L
S
GR
GS
[0.75 0 0 0.75 349.125 266.63923] CT
0 GC
10.0 ML
1.333 LW
N
0 -5 M
0 5 L
-5 0 M
5 0 L
S
GR
GS
[0.75 0 0 0.75 338.62498 278.6743] CT
0 GC
10.0 ML
1.333 LW
N
0 -5 M
0 5 L
-5 0 M
5 0 L
S
GR
GS
[0.75 0 0 0.75 312.37486 270.40022] CT
0 GC
10.0 ML
1.333 LW
N
0 -5 M
0 5 L
-5 0 M
5 0 L
S
GR
GS
[0.75 0 0 0.75 327.37498 271.15249] CT
0 GC
10.0 ML
1.333 LW
N
0 -5 M
0 5 L
-5 0 M
5 0 L
S
GR
GS
[0.75 0 0 0.75 308.62509 281.6832] CT
0 GC
10.0 ML
1.333 LW
N
0 -5 M
0 5 L
-5 0 M
5 0 L
S
GR
GS
[0.75 0 0 0.75 276.37492 406.54721] CT
0 GC
10.0 ML
1.333 LW
N
0 -5 M
0 5 L
-5 0 M
5 0 L
S
GR
GS
[0.75 0 0 0.75 278.62485 378.71601] CT
0 GC
10.0 ML
1.333 LW
N
0 -5 M
0 5 L
-5 0 M
5 0 L
S
GR
GS
[0.75 0 0 0.75 251.62498 451.67878] CT
0 GC
10.0 ML
1.333 LW
N
0 -5 M
0 5 L
-5 0 M
5 0 L
S
GR
GS
[0.75 0 0 0.75 228.37487 466.72259] CT
0 GC
10.0 ML
1.333 LW
N
0 -5 M
0 5 L
-5 0 M
5 0 L
S
GR
GS
[0.75 0 0 0.75 223.12492 486.27965] CT
0 GC
10.0 ML
1.333 LW
N
0 -5 M
0 5 L
-5 0 M
5 0 L
S
GR
GS
[0.75 0 0 0.75 322.87511 395.26423] CT
0 GC
10.0 ML
1.333 LW
N
0 -5 M
0 5 L
-5 0 M
5 0 L
S
GR
GS
[0.75 0 0 0.75 253.12517 414.06901] CT
0 GC
10.0 ML
1.333 LW
N
0 -5 M
0 5 L
-5 0 M
5 0 L
S
GR
GS
[0.75 0 0 0.75 353.58334 412.29601] CT
0 GC
N
4.167 -0.5 M
4.167 -3.077 2.077 -5.167 -0.5 -5.167 C
-3.077 -5.167 -5.167 -3.077 -5.167 -0.5 C
-5.167 2.077 -3.077 4.167 -0.5 4.167 C
2.077 4.167 4.167 2.077 4.167 -0.5 C
f
GR
GS
[0.75 0 0 0.75 353.58334 412.29601] CT
0 GC
10.0 ML
0.667 LW
N
4.167 -0.5 M
4.167 -3.077 2.077 -5.167 -0.5 -5.167 C
-3.077 -5.167 -5.167 -3.077 -5.167 -0.5 C
-5.167 2.077 -3.077 4.167 -0.5 4.167 C
2.077 4.167 4.167 2.077 4.167 -0.5 C
S
GR
GS
[0.75 0 0 0.75 328.58331 427.33999] CT
0 GC
N
/f268829457{4.167 -0.5 M
4.167 -3.077 2.077 -5.167 -0.5 -5.167 C
-3.077 -5.167 -5.167 -3.077 -5.167 -0.5 C
-5.167 2.077 -3.077 4.167 -0.5 4.167 C
2.077 4.167 4.167 2.077 4.167 -0.5 C}def
f268829457
f
GR
GS
[0.75 0 0 0.75 328.58331 427.33999] CT
0 GC
10.0 ML
0.667 LW
N
4.167 -0.5 M
4.167 -3.077 2.077 -5.167 -0.5 -5.167 C
-3.077 -5.167 -5.167 -3.077 -5.167 -0.5 C
-5.167 2.077 -3.077 4.167 -0.5 4.167 C
2.077 4.167 4.167 2.077 4.167 -0.5 C
S
GR
GS
[0.75 0 0 0.75 300.24998 432.71265] CT
0 GC
N
f268829457
f
GR
GS
[0.75 0 0 0.75 300.24998 432.71265] CT
0 GC
10.0 ML
0.667 LW
N
4.167 -0.5 M
4.167 -3.077 2.077 -5.167 -0.5 -5.167 C
-3.077 -5.167 -5.167 -3.077 -5.167 -0.5 C
-5.167 2.077 -3.077 4.167 -0.5 4.167 C
2.077 4.167 4.167 2.077 4.167 -0.5 C
S
GR
GS
[0.75 0 0 0.75 288.58333 449.90577] CT
0 GC
N
f268829457
f
GR
GS
[0.75 0 0 0.75 288.58333 449.90577] CT
0 GC
10.0 ML
0.667 LW
N
4.167 -0.5 M
4.167 -3.077 2.077 -5.167 -0.5 -5.167 C
-3.077 -5.167 -5.167 -3.077 -5.167 -0.5 C
-5.167 2.077 -3.077 4.167 -0.5 4.167 C
2.077 4.167 4.167 2.077 4.167 -0.5 C
S
GR
GS
[0.75 0 0 0.75 338.58332 475.69508] CT
0 GC
N
f268829457
f
GR
GS
[0.75 0 0 0.75 338.58332 475.69508] CT
0 GC
10.0 ML
0.667 LW
N
4.167 -0.5 M
4.167 -3.077 2.077 -5.167 -0.5 -5.167 C
-3.077 -5.167 -5.167 -3.077 -5.167 -0.5 C
-5.167 2.077 -3.077 4.167 -0.5 4.167 C
2.077 4.167 4.167 2.077 4.167 -0.5 C
S
GR
GS
[0.75 0 0 0.75 391.91668 467.09871] CT
0 GC
N
f268829457
f
GR
GS
[0.75 0 0 0.75 391.91668 467.09871] CT
0 GC
10.0 ML
0.667 LW
N
4.167 -0.5 M
4.167 -3.077 2.077 -5.167 -0.5 -5.167 C
-3.077 -5.167 -5.167 -3.077 -5.167 -0.5 C
-5.167 2.077 -3.077 4.167 -0.5 4.167 C
2.077 4.167 4.167 2.077 4.167 -0.5 C
S
GR
GS
[0.75 0 0 0.75 401.91664 431.63809] CT
0 GC
N
f268829457
f
GR
GS
[0.75 0 0 0.75 401.91664 431.63809] CT
0 GC
10.0 ML
0.667 LW
N
4.167 -0.5 M
4.167 -3.077 2.077 -5.167 -0.5 -5.167 C
-3.077 -5.167 -5.167 -3.077 -5.167 -0.5 C
-5.167 2.077 -3.077 4.167 -0.5 4.167 C
2.077 4.167 4.167 2.077 4.167 -0.5 C
S
GR
GS
[0.75 0 0 0.75 435.25003 402.62506] CT
0 GC
N
f268829457
f
GR
GS
[0.75 0 0 0.75 435.25003 402.62506] CT
0 GC
10.0 ML
0.667 LW
N
4.167 -0.5 M
4.167 -3.077 2.077 -5.167 -0.5 -5.167 C
-3.077 -5.167 -5.167 -3.077 -5.167 -0.5 C
-5.167 2.077 -3.077 4.167 -0.5 4.167 C
2.077 4.167 4.167 2.077 4.167 -0.5 C
S
GR
GS
[0.75 0 0 0.75 390.25001 385.43201] CT
0 GC
N
f268829457
f
GR
GS
[0.75 0 0 0.75 390.25001 385.43201] CT
0 GC
10.0 ML
0.667 LW
N
4.167 -0.5 M
4.167 -3.077 2.077 -5.167 -0.5 -5.167 C
-3.077 -5.167 -5.167 -3.077 -5.167 -0.5 C
-5.167 2.077 -3.077 4.167 -0.5 4.167 C
2.077 4.167 4.167 2.077 4.167 -0.5 C
S
GR
GS
[0.75 0 0 0.75 375.24998 407.99772] CT
0 GC
N
f268829457
f
GR
GS
[0.75 0 0 0.75 375.24998 407.99772] CT
0 GC
10.0 ML
0.667 LW
N
4.167 -0.5 M
4.167 -3.077 2.077 -5.167 -0.5 -5.167 C
-3.077 -5.167 -5.167 -3.077 -5.167 -0.5 C
-5.167 2.077 -3.077 4.167 -0.5 4.167 C
2.077 4.167 4.167 2.077 4.167 -0.5 C
S
GR
GS
[0.75 0 0 0.75 378.58333 434.8618] CT
0 GC
N
f268829457
f
GR
GS
[0.75 0 0 0.75 378.58333 434.8618] CT
0 GC
10.0 ML
0.667 LW
N
4.167 -0.5 M
4.167 -3.077 2.077 -5.167 -0.5 -5.167 C
-3.077 -5.167 -5.167 -3.077 -5.167 -0.5 C
-5.167 2.077 -3.077 4.167 -0.5 4.167 C
2.077 4.167 4.167 2.077 4.167 -0.5 C
S
GR
GS
[0.75 0 0 0.75 331.91668 441.30922] CT
0 GC
N
f268829457
f
GR
GS
[0.75 0 0 0.75 331.91668 441.30922] CT
0 GC
10.0 ML
0.667 LW
N
4.167 -0.5 M
4.167 -3.077 2.077 -5.167 -0.5 -5.167 C
-3.077 -5.167 -5.167 -3.077 -5.167 -0.5 C
-5.167 2.077 -3.077 4.167 -0.5 4.167 C
2.077 4.167 4.167 2.077 4.167 -0.5 C
S
GR
GS
[0.75 0 0 0.75 365.25 457.42758] CT
0 GC
N
f268829457
f
GR
GS
[0.75 0 0 0.75 365.25 457.42758] CT
0 GC
10.0 ML
0.667 LW
N
4.167 -0.5 M
4.167 -3.077 2.077 -5.167 -0.5 -5.167 C
-3.077 -5.167 -5.167 -3.077 -5.167 -0.5 C
-5.167 2.077 -3.077 4.167 -0.5 4.167 C
2.077 4.167 4.167 2.077 4.167 -0.5 C
S
GR
GS
[0.75 0 0 0.75 415.24986 450.98035] CT
0 GC
N
f268829457
f
GR
GS
[0.75 0 0 0.75 415.24986 450.98035] CT
0 GC
10.0 ML
0.667 LW
N
4.167 -0.5 M
4.167 -3.077 2.077 -5.167 -0.5 -5.167 C
-3.077 -5.167 -5.167 -3.077 -5.167 -0.5 C
-5.167 2.077 -3.077 4.167 -0.5 4.167 C
2.077 4.167 4.167 2.077 4.167 -0.5 C
S
GR
GS
[0.75 0 0 0.75 451.9167 407.99772] CT
0 GC
N
f268829457
f
GR
GS
[0.75 0 0 0.75 451.9167 407.99772] CT
0 GC
10.0 ML
0.667 LW
N
4.167 -0.5 M
4.167 -3.077 2.077 -5.167 -0.5 -5.167 C
-3.077 -5.167 -5.167 -3.077 -5.167 -0.5 C
-5.167 2.077 -3.077 4.167 -0.5 4.167 C
2.077 4.167 4.167 2.077 4.167 -0.5 C
S
GR
GS
[0.75 0 0 0.75 398.58334 387.58114] CT
0 GC
N
f268829457
f
GR
GS
[0.75 0 0 0.75 398.58334 387.58114] CT
0 GC
10.0 ML
0.667 LW
N
4.167 -0.5 M
4.167 -3.077 2.077 -5.167 -0.5 -5.167 C
-3.077 -5.167 -5.167 -3.077 -5.167 -0.5 C
-5.167 2.077 -3.077 4.167 -0.5 4.167 C
2.077 4.167 4.167 2.077 4.167 -0.5 C
S
GR
GS
[0.75 0 0 0.75 241.91677 429.48894] CT
0 GC
N
f268829457
f
GR
GS
[0.75 0 0 0.75 241.91677 429.48894] CT
0 GC
10.0 ML
0.667 LW
N
4.167 -0.5 M
4.167 -3.077 2.077 -5.167 -0.5 -5.167 C
-3.077 -5.167 -5.167 -3.077 -5.167 -0.5 C
-5.167 2.077 -3.077 4.167 -0.5 4.167 C
2.077 4.167 4.167 2.077 4.167 -0.5 C
S
GR
GS
[0.75 0 0 0.75 285.24986 395.10307] CT
0 GC
N
f268829457
f
GR
GS
[0.75 0 0 0.75 285.24986 395.10307] CT
0 GC
10.0 ML
0.667 LW
N
4.167 -0.5 M
4.167 -3.077 2.077 -5.167 -0.5 -5.167 C
-3.077 -5.167 -5.167 -3.077 -5.167 -0.5 C
-5.167 2.077 -3.077 4.167 -0.5 4.167 C
2.077 4.167 4.167 2.077 4.167 -0.5 C
S
GR
GS
[0.75 0 0 0.75 340.24999 369.31359] CT
0 GC
N
f268829457
f
GR
GS
[0.75 0 0 0.75 340.24999 369.31359] CT
0 GC
10.0 ML
0.667 LW
N
4.167 -0.5 M
4.167 -3.077 2.077 -5.167 -0.5 -5.167 C
-3.077 -5.167 -5.167 -3.077 -5.167 -0.5 C
-5.167 2.077 -3.077 4.167 -0.5 4.167 C
2.077 4.167 4.167 2.077 4.167 -0.5 C
S
GR
GS
[0.75 0 0 0.75 383.58334 368.23904] CT
0 GC
N
f268829457
f
GR
GS
[0.75 0 0 0.75 383.58334 368.23904] CT
0 GC
10.0 ML
0.667 LW
N
4.167 -0.5 M
4.167 -3.077 2.077 -5.167 -0.5 -5.167 C
-3.077 -5.167 -5.167 -3.077 -5.167 -0.5 C
-5.167 2.077 -3.077 4.167 -0.5 4.167 C
2.077 4.167 4.167 2.077 4.167 -0.5 C
S
GR
GS
[0.75 0 0 0.75 371.91666 343.52408] CT
0 GC
N
f268829457
f
GR
GS
[0.75 0 0 0.75 371.91666 343.52408] CT
0 GC
10.0 ML
0.667 LW
N
4.167 -0.5 M
4.167 -3.077 2.077 -5.167 -0.5 -5.167 C
-3.077 -5.167 -5.167 -3.077 -5.167 -0.5 C
-5.167 2.077 -3.077 4.167 -0.5 4.167 C
2.077 4.167 4.167 2.077 4.167 -0.5 C
S
GR
GS
[0.75 0 0 0.75 216.91656 401.55049] CT
0 GC
N
f268829457
f
GR
GS
[0.75 0 0 0.75 216.91656 401.55049] CT
0 GC
10.0 ML
0.667 LW
N
4.167 -0.5 M
4.167 -3.077 2.077 -5.167 -0.5 -5.167 C
-3.077 -5.167 -5.167 -3.077 -5.167 -0.5 C
-5.167 2.077 -3.077 4.167 -0.5 4.167 C
2.077 4.167 4.167 2.077 4.167 -0.5 C
S
GR
GS
[0.75 0 0 0.75 253.58342 430.56351] CT
0 GC
N
f268829457
f
GR
GS
[0.75 0 0 0.75 253.58342 430.56351] CT
0 GC
10.0 ML
0.667 LW
N
4.167 -0.5 M
4.167 -3.077 2.077 -5.167 -0.5 -5.167 C
-3.077 -5.167 -5.167 -3.077 -5.167 -0.5 C
-5.167 2.077 -3.077 4.167 -0.5 4.167 C
2.077 4.167 4.167 2.077 4.167 -0.5 C
S
GR
GS
[0.75 0 0 0.75 413.5833 412.29601] CT
0 GC
N
f268829457
f
GR
GS
[0.75 0 0 0.75 413.5833 412.29601] CT
0 GC
10.0 ML
0.667 LW
N
4.167 -0.5 M
4.167 -3.077 2.077 -5.167 -0.5 -5.167 C
-3.077 -5.167 -5.167 -3.077 -5.167 -0.5 C
-5.167 2.077 -3.077 4.167 -0.5 4.167 C
2.077 4.167 4.167 2.077 4.167 -0.5 C
S
GR
GS
[0.75 0 0 0.75 441.91663 429.48894] CT
0 GC
N
f268829457
f
GR
GS
[0.75 0 0 0.75 441.91663 429.48894] CT
0 GC
10.0 ML
0.667 LW
N
4.167 -0.5 M
4.167 -3.077 2.077 -5.167 -0.5 -5.167 C
-3.077 -5.167 -5.167 -3.077 -5.167 -0.5 C
-5.167 2.077 -3.077 4.167 -0.5 4.167 C
2.077 4.167 4.167 2.077 4.167 -0.5 C
S
GR
GS
[0.75 0 0 0.75 446.91666 456.353] CT
0 GC
N
f268829457
f
GR
GS
[0.75 0 0 0.75 446.91666 456.353] CT
0 GC
10.0 ML
0.667 LW
N
4.167 -0.5 M
4.167 -3.077 2.077 -5.167 -0.5 -5.167 C
-3.077 -5.167 -5.167 -3.077 -5.167 -0.5 C
-5.167 2.077 -3.077 4.167 -0.5 4.167 C
2.077 4.167 4.167 2.077 4.167 -0.5 C
S
GR
GS
[0.75 0 0 0.75 393.58335 490.73907] CT
0 GC
N
f268829457
f
GR
GS
[0.75 0 0 0.75 393.58335 490.73907] CT
0 GC
10.0 ML
0.667 LW
N
4.167 -0.5 M
4.167 -3.077 2.077 -5.167 -0.5 -5.167 C
-3.077 -5.167 -5.167 -3.077 -5.167 -0.5 C
-5.167 2.077 -3.077 4.167 -0.5 4.167 C
2.077 4.167 4.167 2.077 4.167 -0.5 C
S
GR
GS
[0.75 0 0 0.75 320.25014 483.21707] CT
0 GC
N
f268829457
f
GR
GS
[0.75 0 0 0.75 320.25014 483.21707] CT
0 GC
10.0 ML
0.667 LW
N
4.167 -0.5 M
4.167 -3.077 2.077 -5.167 -0.5 -5.167 C
-3.077 -5.167 -5.167 -3.077 -5.167 -0.5 C
-5.167 2.077 -3.077 4.167 -0.5 4.167 C
2.077 4.167 4.167 2.077 4.167 -0.5 C
S
GR
GS
[0.75 0 0 0.75 291.91681 478.91879] CT
0 GC
N
f268829457
f
GR
GS
[0.75 0 0 0.75 291.91681 478.91879] CT
0 GC
10.0 ML
0.667 LW
N
4.167 -0.5 M
4.167 -3.077 2.077 -5.167 -0.5 -5.167 C
-3.077 -5.167 -5.167 -3.077 -5.167 -0.5 C
-5.167 2.077 -3.077 4.167 -0.5 4.167 C
2.077 4.167 4.167 2.077 4.167 -0.5 C
S
GR
GS
[0.75 0 0 0.75 285.24986 450.98035] CT
0 GC
N
f268829457
f
GR
GS
[0.75 0 0 0.75 285.24986 450.98035] CT
0 GC
10.0 ML
0.667 LW
N
4.167 -0.5 M
4.167 -3.077 2.077 -5.167 -0.5 -5.167 C
-3.077 -5.167 -5.167 -3.077 -5.167 -0.5 C
-5.167 2.077 -3.077 4.167 -0.5 4.167 C
2.077 4.167 4.167 2.077 4.167 -0.5 C
S
GR
GS
[0.75 0 0 0.75 315.2501 447.75664] CT
0 GC
N
f268829457
f
GR
GS
[0.75 0 0 0.75 315.2501 447.75664] CT
0 GC
10.0 ML
0.667 LW
N
4.167 -0.5 M
4.167 -3.077 2.077 -5.167 -0.5 -5.167 C
-3.077 -5.167 -5.167 -3.077 -5.167 -0.5 C
-5.167 2.077 -3.077 4.167 -0.5 4.167 C
2.077 4.167 4.167 2.077 4.167 -0.5 C
S
GR
GS
[0.75 0 0 0.75 343.58331 460.65129] CT
0 GC
N
f268829457
f
GR
GS
[0.75 0 0 0.75 343.58331 460.65129] CT
0 GC
10.0 ML
0.667 LW
N
4.167 -0.5 M
4.167 -3.077 2.077 -5.167 -0.5 -5.167 C
-3.077 -5.167 -5.167 -3.077 -5.167 -0.5 C
-5.167 2.077 -3.077 4.167 -0.5 4.167 C
2.077 4.167 4.167 2.077 4.167 -0.5 C
S
GR
GS
[0.75 0 0 0.75 416.91678 466.02413] CT
0 GC
N
f268829457
f
GR
GS
[0.75 0 0 0.75 416.91678 466.02413] CT
0 GC
10.0 ML
0.667 LW
N
4.167 -0.5 M
4.167 -3.077 2.077 -5.167 -0.5 -5.167 C
-3.077 -5.167 -5.167 -3.077 -5.167 -0.5 C
-5.167 2.077 -3.077 4.167 -0.5 4.167 C
2.077 4.167 4.167 2.077 4.167 -0.5 C
S
GR
GS
[0.75 0 0 0.75 465.24992 446.68206] CT
0 GC
N
f268829457
f
GR
GS
[0.75 0 0 0.75 465.24992 446.68206] CT
0 GC
10.0 ML
0.667 LW
N
4.167 -0.5 M
4.167 -3.077 2.077 -5.167 -0.5 -5.167 C
-3.077 -5.167 -5.167 -3.077 -5.167 -0.5 C
-5.167 2.077 -3.077 4.167 -0.5 4.167 C
2.077 4.167 4.167 2.077 4.167 -0.5 C
S
GR
GS
[0.75 0 0 0.75 475.24999 426.26542] CT
0 GC
N
f268829457
f
GR
GS
[0.75 0 0 0.75 475.24999 426.26542] CT
0 GC
10.0 ML
0.667 LW
N
4.167 -0.5 M
4.167 -3.077 2.077 -5.167 -0.5 -5.167 C
-3.077 -5.167 -5.167 -3.077 -5.167 -0.5 C
-5.167 2.077 -3.077 4.167 -0.5 4.167 C
2.077 4.167 4.167 2.077 4.167 -0.5 C
S
GR
GS
[0.75 0 0 0.75 466.91684 403.69963] CT
0 GC
N
f268829457
f
GR
GS
[0.75 0 0 0.75 466.91684 403.69963] CT
0 GC
10.0 ML
0.667 LW
N
4.167 -0.5 M
4.167 -3.077 2.077 -5.167 -0.5 -5.167 C
-3.077 -5.167 -5.167 -3.077 -5.167 -0.5 C
-5.167 2.077 -3.077 4.167 -0.5 4.167 C
2.077 4.167 4.167 2.077 4.167 -0.5 C
S
GR
GS
[0.75 0 0 0.75 460.24988 381.13377] CT
0 GC
N
f268829457
f
GR
GS
[0.75 0 0 0.75 460.24988 381.13377] CT
0 GC
10.0 ML
0.667 LW
N
4.167 -0.5 M
4.167 -3.077 2.077 -5.167 -0.5 -5.167 C
-3.077 -5.167 -5.167 -3.077 -5.167 -0.5 C
-5.167 2.077 -3.077 4.167 -0.5 4.167 C
2.077 4.167 4.167 2.077 4.167 -0.5 C
S
GR
GS
[0.75 0 0 0.75 448.58322 381.13377] CT
0 GC
N
f268829457
f
GR
GS
[0.75 0 0 0.75 448.58322 381.13377] CT
0 GC
10.0 ML
0.667 LW
N
4.167 -0.5 M
4.167 -3.077 2.077 -5.167 -0.5 -5.167 C
-3.077 -5.167 -5.167 -3.077 -5.167 -0.5 C
-5.167 2.077 -3.077 4.167 -0.5 4.167 C
2.077 4.167 4.167 2.077 4.167 -0.5 C
S
GR
GS
[0.75 0 0 0.75 433.58345 387.58114] CT
0 GC
N
f268829457
f
GR
GS
[0.75 0 0 0.75 433.58345 387.58114] CT
0 GC
10.0 ML
0.667 LW
N
4.167 -0.5 M
4.167 -3.077 2.077 -5.167 -0.5 -5.167 C
-3.077 -5.167 -5.167 -3.077 -5.167 -0.5 C
-5.167 2.077 -3.077 4.167 -0.5 4.167 C
2.077 4.167 4.167 2.077 4.167 -0.5 C
S
GR
GS
[0.75 0 0 0.75 425.24993 400.47592] CT
0 GC
N
f268829457
f
GR
GS
[0.75 0 0 0.75 425.24993 400.47592] CT
0 GC
10.0 ML
0.667 LW
N
4.167 -0.5 M
4.167 -3.077 2.077 -5.167 -0.5 -5.167 C
-3.077 -5.167 -5.167 -3.077 -5.167 -0.5 C
-5.167 2.077 -3.077 4.167 -0.5 4.167 C
2.077 4.167 4.167 2.077 4.167 -0.5 C
S
GR
GS
[0.75 0 0 0.75 393.58335 411.22143] CT
0 GC
N
f268829457
f
GR
GS
[0.75 0 0 0.75 393.58335 411.22143] CT
0 GC
10.0 ML
0.667 LW
N
4.167 -0.5 M
4.167 -3.077 2.077 -5.167 -0.5 -5.167 C
-3.077 -5.167 -5.167 -3.077 -5.167 -0.5 C
-5.167 2.077 -3.077 4.167 -0.5 4.167 C
2.077 4.167 4.167 2.077 4.167 -0.5 C
S
GR
GS
[0.75 0 0 0.75 373.58331 420.89257] CT
0 GC
N
f268829457
f
GR
GS
[0.75 0 0 0.75 373.58331 420.89257] CT
0 GC
10.0 ML
0.667 LW
N
4.167 -0.5 M
4.167 -3.077 2.077 -5.167 -0.5 -5.167 C
-3.077 -5.167 -5.167 -3.077 -5.167 -0.5 C
-5.167 2.077 -3.077 4.167 -0.5 4.167 C
2.077 4.167 4.167 2.077 4.167 -0.5 C
S
GR
GS
[0.75 0 0 0.75 358.58334 442.38377] CT
0 GC
N
f268829457
f
GR
GS
[0.75 0 0 0.75 358.58334 442.38377] CT
0 GC
10.0 ML
0.667 LW
N
4.167 -0.5 M
4.167 -3.077 2.077 -5.167 -0.5 -5.167 C
-3.077 -5.167 -5.167 -3.077 -5.167 -0.5 C
-5.167 2.077 -3.077 4.167 -0.5 4.167 C
2.077 4.167 4.167 2.077 4.167 -0.5 C
S
GR
GS
[0.75 0 0 0.75 363.58335 460.65129] CT
0 GC
N
f268829457
f
GR
GS
[0.75 0 0 0.75 363.58335 460.65129] CT
0 GC
10.0 ML
0.667 LW
N
4.167 -0.5 M
4.167 -3.077 2.077 -5.167 -0.5 -5.167 C
-3.077 -5.167 -5.167 -3.077 -5.167 -0.5 C
-5.167 2.077 -3.077 4.167 -0.5 4.167 C
2.077 4.167 4.167 2.077 4.167 -0.5 C
S
GR
GS
[0.75 0 0 0.75 366.91667 464.94958] CT
0 GC
N
f268829457
f
GR
GS
[0.75 0 0 0.75 366.91667 464.94958] CT
0 GC
10.0 ML
0.667 LW
N
4.167 -0.5 M
4.167 -3.077 2.077 -5.167 -0.5 -5.167 C
-3.077 -5.167 -5.167 -3.077 -5.167 -0.5 C
-5.167 2.077 -3.077 4.167 -0.5 4.167 C
2.077 4.167 4.167 2.077 4.167 -0.5 C
S
GR
GS
[0.75 0 0 0.75 376.91666 466.02413] CT
0 GC
N
f268829457
f
GR
GS
[0.75 0 0 0.75 376.91666 466.02413] CT
0 GC
10.0 ML
0.667 LW
N
4.167 -0.5 M
4.167 -3.077 2.077 -5.167 -0.5 -5.167 C
-3.077 -5.167 -5.167 -3.077 -5.167 -0.5 C
-5.167 2.077 -3.077 4.167 -0.5 4.167 C
2.077 4.167 4.167 2.077 4.167 -0.5 C
S
GR
GS
[0.75 0 0 0.75 376.91666 474.6207] CT
0 GC
N
f268829457
f
GR
GS
[0.75 0 0 0.75 376.91666 474.6207] CT
0 GC
10.0 ML
0.667 LW
N
4.167 -0.5 M
4.167 -3.077 2.077 -5.167 -0.5 -5.167 C
-3.077 -5.167 -5.167 -3.077 -5.167 -0.5 C
-5.167 2.077 -3.077 4.167 -0.5 4.167 C
2.077 4.167 4.167 2.077 4.167 -0.5 C
S
GR
GS
[0.75 0 0 0.75 371.91666 492.88822] CT
0 GC
N
f268829457
f
GR
GS
[0.75 0 0 0.75 371.91666 492.88822] CT
0 GC
10.0 ML
0.667 LW
N
4.167 -0.5 M
4.167 -3.077 2.077 -5.167 -0.5 -5.167 C
-3.077 -5.167 -5.167 -3.077 -5.167 -0.5 C
-5.167 2.077 -3.077 4.167 -0.5 4.167 C
2.077 4.167 4.167 2.077 4.167 -0.5 C
S
GR
GS
[0.75 0 0 0.75 350.25 490.73907] CT
0 GC
N
f268829457
f
GR
GS
[0.75 0 0 0.75 350.25 490.73907] CT
0 GC
10.0 ML
0.667 LW
N
4.167 -0.5 M
4.167 -3.077 2.077 -5.167 -0.5 -5.167 C
-3.077 -5.167 -5.167 -3.077 -5.167 -0.5 C
-5.167 2.077 -3.077 4.167 -0.5 4.167 C
2.077 4.167 4.167 2.077 4.167 -0.5 C
S
GR
GS
[0.75 0 0 0.75 336.91665 473.54613] CT
0 GC
N
f268829457
f
GR
GS
[0.75 0 0 0.75 336.91665 473.54613] CT
0 GC
10.0 ML
0.667 LW
N
4.167 -0.5 M
4.167 -3.077 2.077 -5.167 -0.5 -5.167 C
-3.077 -5.167 -5.167 -3.077 -5.167 -0.5 C
-5.167 2.077 -3.077 4.167 -0.5 4.167 C
2.077 4.167 4.167 2.077 4.167 -0.5 C
S
GR
GS
[0.75 0 0 0.75 331.91668 463.875] CT
0 GC
N
f268829457
f
GR
GS
[0.75 0 0 0.75 331.91668 463.875] CT
0 GC
10.0 ML
0.667 LW
N
4.167 -0.5 M
4.167 -3.077 2.077 -5.167 -0.5 -5.167 C
-3.077 -5.167 -5.167 -3.077 -5.167 -0.5 C
-5.167 2.077 -3.077 4.167 -0.5 4.167 C
2.077 4.167 4.167 2.077 4.167 -0.5 C
S
GR
GS
[0.75 0 0 0.75 361.91668 449.90577] CT
0 GC
N
f268829457
f
GR
GS
[0.75 0 0 0.75 361.91668 449.90577] CT
0 GC
10.0 ML
0.667 LW
N
4.167 -0.5 M
4.167 -3.077 2.077 -5.167 -0.5 -5.167 C
-3.077 -5.167 -5.167 -3.077 -5.167 -0.5 C
-5.167 2.077 -3.077 4.167 -0.5 4.167 C
2.077 4.167 4.167 2.077 4.167 -0.5 C
S
GR
GS
[0.75 0 0 0.75 415.24986 438.08551] CT
0 GC
N
f268829457
f
GR
GS
[0.75 0 0 0.75 415.24986 438.08551] CT
0 GC
10.0 ML
0.667 LW
N
4.167 -0.5 M
4.167 -3.077 2.077 -5.167 -0.5 -5.167 C
-3.077 -5.167 -5.167 -3.077 -5.167 -0.5 C
-5.167 2.077 -3.077 4.167 -0.5 4.167 C
2.077 4.167 4.167 2.077 4.167 -0.5 C
S
GR
GS
[0.75 0 0 0.75 448.58322 440.23464] CT
0 GC
N
f268829457
f
GR
GS
[0.75 0 0 0.75 448.58322 440.23464] CT
0 GC
10.0 ML
0.667 LW
N
4.167 -0.5 M
4.167 -3.077 2.077 -5.167 -0.5 -5.167 C
-3.077 -5.167 -5.167 -3.077 -5.167 -0.5 C
-5.167 2.077 -3.077 4.167 -0.5 4.167 C
2.077 4.167 4.167 2.077 4.167 -0.5 C
S
GR
GS
[0.75 0 0 0.75 473.58344 427.33999] CT
0 GC
N
f268829457
f
GR
GS
[0.75 0 0 0.75 473.58344 427.33999] CT
0 GC
10.0 ML
0.667 LW
N
4.167 -0.5 M
4.167 -3.077 2.077 -5.167 -0.5 -5.167 C
-3.077 -5.167 -5.167 -3.077 -5.167 -0.5 C
-5.167 2.077 -3.077 4.167 -0.5 4.167 C
2.077 4.167 4.167 2.077 4.167 -0.5 C
S
GR
GS
[0.75 0 0 0.75 461.91678 410.14687] CT
0 GC
N
f268829457
f
GR
GS
[0.75 0 0 0.75 461.91678 410.14687] CT
0 GC
10.0 ML
0.667 LW
N
4.167 -0.5 M
4.167 -3.077 2.077 -5.167 -0.5 -5.167 C
-3.077 -5.167 -5.167 -3.077 -5.167 -0.5 C
-5.167 2.077 -3.077 4.167 -0.5 4.167 C
2.077 4.167 4.167 2.077 4.167 -0.5 C
S
GR
GS
[0.75 0 0 0.75 440.25007 413.37057] CT
0 GC
N
f268829457
f
GR
GS
[0.75 0 0 0.75 440.25007 413.37057] CT
0 GC
10.0 ML
0.667 LW
N
4.167 -0.5 M
4.167 -3.077 2.077 -5.167 -0.5 -5.167 C
-3.077 -5.167 -5.167 -3.077 -5.167 -0.5 C
-5.167 2.077 -3.077 4.167 -0.5 4.167 C
2.077 4.167 4.167 2.077 4.167 -0.5 C
S
GR
GS
[0.75 0 0 0.75 430.24997 421.96714] CT
0 GC
N
f268829457
f
GR
GS
[0.75 0 0 0.75 430.24997 421.96714] CT
0 GC
10.0 ML
0.667 LW
N
4.167 -0.5 M
4.167 -3.077 2.077 -5.167 -0.5 -5.167 C
-3.077 -5.167 -5.167 -3.077 -5.167 -0.5 C
-5.167 2.077 -3.077 4.167 -0.5 4.167 C
2.077 4.167 4.167 2.077 4.167 -0.5 C
S
GR
GS
[0.75 0 0 0.75 295.24995 414.44515] CT
0 GC
N
f268829457
f
GR
GS
[0.75 0 0 0.75 295.24995 414.44515] CT
0 GC
10.0 ML
0.667 LW
N
4.167 -0.5 M
4.167 -3.077 2.077 -5.167 -0.5 -5.167 C
-3.077 -5.167 -5.167 -3.077 -5.167 -0.5 C
-5.167 2.077 -3.077 4.167 -0.5 4.167 C
2.077 4.167 4.167 2.077 4.167 -0.5 C
S
GR
GS
[0.75 0 0 0.75 328.58331 387.58114] CT
0 GC
N
f268829457
f
GR
GS
[0.75 0 0 0.75 328.58331 387.58114] CT
0 GC
10.0 ML
0.667 LW
N
4.167 -0.5 M
4.167 -3.077 2.077 -5.167 -0.5 -5.167 C
-3.077 -5.167 -5.167 -3.077 -5.167 -0.5 C
-5.167 2.077 -3.077 4.167 -0.5 4.167 C
2.077 4.167 4.167 2.077 4.167 -0.5 C
S
GR
GS
[0.75 0 0 0.75 380.25 359.64253] CT
0 GC
N
f268829457
f
GR
GS
[0.75 0 0 0.75 380.25 359.64253] CT
0 GC
10.0 ML
0.667 LW
N
4.167 -0.5 M
4.167 -3.077 2.077 -5.167 -0.5 -5.167 C
-3.077 -5.167 -5.167 -3.077 -5.167 -0.5 C
-5.167 2.077 -3.077 4.167 -0.5 4.167 C
2.077 4.167 4.167 2.077 4.167 -0.5 C
S
GR
GS
[0.75 0 0 0.75 396.91667 349.9715] CT
0 GC
N
f268829457
f
GR
GS
[0.75 0 0 0.75 396.91667 349.9715] CT
0 GC
10.0 ML
0.667 LW
N
4.167 -0.5 M
4.167 -3.077 2.077 -5.167 -0.5 -5.167 C
-3.077 -5.167 -5.167 -3.077 -5.167 -0.5 C
-5.167 2.077 -3.077 4.167 -0.5 4.167 C
2.077 4.167 4.167 2.077 4.167 -0.5 C
S
GR
GS
[0.75 0 0 0.75 277.87511 419.33437] CT
0 GC
N
f268829457
f
GR
GS
[0.75 0 0 0.75 277.87511 419.33437] CT
0 GC
10.0 ML
0.667 LW
N
4.167 -0.5 M
4.167 -3.077 2.077 -5.167 -0.5 -5.167 C
-3.077 -5.167 -5.167 -3.077 -5.167 -0.5 C
-5.167 2.077 -3.077 4.167 -0.5 4.167 C
2.077 4.167 4.167 2.077 4.167 -0.5 C
S
GR
GS
[0.75 0 0 0.75 285.37499 429.86508] CT
0 GC
N
f268829457
f
GR
GS
[0.75 0 0 0.75 285.37499 429.86508] CT
0 GC
10.0 ML
0.667 LW
N
4.167 -0.5 M
4.167 -3.077 2.077 -5.167 -0.5 -5.167 C
-3.077 -5.167 -5.167 -3.077 -5.167 -0.5 C
-5.167 2.077 -3.077 4.167 -0.5 4.167 C
2.077 4.167 4.167 2.077 4.167 -0.5 C
S
GR
GS
[0.75 0 0 0.75 265.12492 442.65244] CT
0 GC
N
f268829457
f
GR
GS
[0.75 0 0 0.75 265.12492 442.65244] CT
0 GC
10.0 ML
0.667 LW
N
4.167 -0.5 M
4.167 -3.077 2.077 -5.167 -0.5 -5.167 C
-3.077 -5.167 -5.167 -3.077 -5.167 -0.5 C
-5.167 2.077 -3.077 4.167 -0.5 4.167 C
2.077 4.167 4.167 2.077 4.167 -0.5 C
S
GR
GS
[0.75 0 0 0.75 262.1249 455.43977] CT
0 GC
N
f268829457
f
GR
GS
[0.75 0 0 0.75 262.1249 455.43977] CT
0 GC
10.0 ML
0.667 LW
N
4.167 -0.5 M
4.167 -3.077 2.077 -5.167 -0.5 -5.167 C
-3.077 -5.167 -5.167 -3.077 -5.167 -0.5 C
-5.167 2.077 -3.077 4.167 -0.5 4.167 C
2.077 4.167 4.167 2.077 4.167 -0.5 C
S
GR
GS
[0.75 0 0 0.75 245.62493 467.47483] CT
0 GC
N
f268829457
f
GR
GS
[0.75 0 0 0.75 245.62493 467.47483] CT
0 GC
10.0 ML
0.667 LW
N
4.167 -0.5 M
4.167 -3.077 2.077 -5.167 -0.5 -5.167 C
-3.077 -5.167 -5.167 -3.077 -5.167 -0.5 C
-5.167 2.077 -3.077 4.167 -0.5 4.167 C
2.077 4.167 4.167 2.077 4.167 -0.5 C
S
GR
GS
[0.75 0 0 0.75 267.37484 472.74021] CT
0 GC
N
f268829457
f
GR
GS
[0.75 0 0 0.75 267.37484 472.74021] CT
0 GC
10.0 ML
0.667 LW
N
4.167 -0.5 M
4.167 -3.077 2.077 -5.167 -0.5 -5.167 C
-3.077 -5.167 -5.167 -3.077 -5.167 -0.5 C
-5.167 2.077 -3.077 4.167 -0.5 4.167 C
2.077 4.167 4.167 2.077 4.167 -0.5 C
S
GR
GS
[0.75 0 0 0.75 292.87486 470.48357] CT
0 GC
N
f268829457
f
GR
GS
[0.75 0 0 0.75 292.87486 470.48357] CT
0 GC
10.0 ML
0.667 LW
N
4.167 -0.5 M
4.167 -3.077 2.077 -5.167 -0.5 -5.167 C
-3.077 -5.167 -5.167 -3.077 -5.167 -0.5 C
-5.167 2.077 -3.077 4.167 -0.5 4.167 C
2.077 4.167 4.167 2.077 4.167 -0.5 C
S
GR
GS
[0.75 0 0 0.75 300.37511 459.95286] CT
0 GC
N
f268829457
f
GR
GS
[0.75 0 0 0.75 300.37511 459.95286] CT
0 GC
10.0 ML
0.667 LW
N
4.167 -0.5 M
4.167 -3.077 2.077 -5.167 -0.5 -5.167 C
-3.077 -5.167 -5.167 -3.077 -5.167 -0.5 C
-5.167 2.077 -3.077 4.167 -0.5 4.167 C
2.077 4.167 4.167 2.077 4.167 -0.5 C
S
GR
GS
[0.75 0 0 0.75 319.87509 465.21822] CT
0 GC
N
f268829457
f
GR
GS
[0.75 0 0 0.75 319.87509 465.21822] CT
0 GC
10.0 ML
0.667 LW
N
4.167 -0.5 M
4.167 -3.077 2.077 -5.167 -0.5 -5.167 C
-3.077 -5.167 -5.167 -3.077 -5.167 -0.5 C
-5.167 2.077 -3.077 4.167 -0.5 4.167 C
2.077 4.167 4.167 2.077 4.167 -0.5 C
S
GR
GS
[0.75 0 0 0.75 303.37514 426.85636] CT
0 GC
N
f268829457
f
GR
GS
[0.75 0 0 0.75 303.37514 426.85636] CT
0 GC
10.0 ML
0.667 LW
N
4.167 -0.5 M
4.167 -3.077 2.077 -5.167 -0.5 -5.167 C
-3.077 -5.167 -5.167 -3.077 -5.167 -0.5 C
-5.167 2.077 -3.077 4.167 -0.5 4.167 C
2.077 4.167 4.167 2.077 4.167 -0.5 C
S
GR
GS
[0.75 0 0 0.75 307.875 404.29057] CT
0 GC
N
f268829457
f
GR
GS
[0.75 0 0 0.75 307.875 404.29057] CT
0 GC
10.0 ML
0.667 LW
N
4.167 -0.5 M
4.167 -3.077 2.077 -5.167 -0.5 -5.167 C
-3.077 -5.167 -5.167 -3.077 -5.167 -0.5 C
-5.167 2.077 -3.077 4.167 -0.5 4.167 C
2.077 4.167 4.167 2.077 4.167 -0.5 C
S
GR
GS
[0.75 0 0 0.75 309.37484 395.26423] CT
0 GC
N
f268829457
f
GR
GS
[0.75 0 0 0.75 309.37484 395.26423] CT
0 GC
10.0 ML
0.667 LW
N
4.167 -0.5 M
4.167 -3.077 2.077 -5.167 -0.5 -5.167 C
-3.077 -5.167 -5.167 -3.077 -5.167 -0.5 C
-5.167 2.077 -3.077 4.167 -0.5 4.167 C
2.077 4.167 4.167 2.077 4.167 -0.5 C
S
GR
GS
[0.75 0 0 0.75 367.875 324.55814] CT
0 GC
N
f268829457
f
GR
GS
[0.75 0 0 0.75 367.875 324.55814] CT
0 GC
10.0 ML
0.667 LW
N
4.167 -0.5 M
4.167 -3.077 2.077 -5.167 -0.5 -5.167 C
-3.077 -5.167 -5.167 -3.077 -5.167 -0.5 C
-5.167 2.077 -3.077 4.167 -0.5 4.167 C
2.077 4.167 4.167 2.077 4.167 -0.5 C
S
GR
GS
[0.75 0 0 0.75 396.37502 306.50543] CT
0 GC
N
f268829457
f
GR
GS
[0.75 0 0 0.75 396.37502 306.50543] CT
0 GC
10.0 ML
0.667 LW
N
4.167 -0.5 M
4.167 -3.077 2.077 -5.167 -0.5 -5.167 C
-3.077 -5.167 -5.167 -3.077 -5.167 -0.5 C
-5.167 2.077 -3.077 4.167 -0.5 4.167 C
2.077 4.167 4.167 2.077 4.167 -0.5 C
S
GR
GS
[0.75 0 0 0.75 358.125 338.84984] CT
0 GC
N
f268829457
f
GR
GS
[0.75 0 0 0.75 358.125 338.84984] CT
0 GC
10.0 ML
0.667 LW
N
4.167 -0.5 M
4.167 -3.077 2.077 -5.167 -0.5 -5.167 C
-3.077 -5.167 -5.167 -3.077 -5.167 -0.5 C
-5.167 2.077 -3.077 4.167 -0.5 4.167 C
2.077 4.167 4.167 2.077 4.167 -0.5 C
S
GR
GS
[0.75 0 0 0.75 348.375 357.6546] CT
0 GC
N
f268829457
f
GR
GS
[0.75 0 0 0.75 348.375 357.6546] CT
0 GC
10.0 ML
0.667 LW
N
4.167 -0.5 M
4.167 -3.077 2.077 -5.167 -0.5 -5.167 C
-3.077 -5.167 -5.167 -3.077 -5.167 -0.5 C
-5.167 2.077 -3.077 4.167 -0.5 4.167 C
2.077 4.167 4.167 2.077 4.167 -0.5 C
S
GR
GS
[0.75 0 0 0.75 362.625 381.72479] CT
0 GC
N
f268829457
f
GR
GS
[0.75 0 0 0.75 362.625 381.72479] CT
0 GC
10.0 ML
0.667 LW
N
4.167 -0.5 M
4.167 -3.077 2.077 -5.167 -0.5 -5.167 C
-3.077 -5.167 -5.167 -3.077 -5.167 -0.5 C
-5.167 2.077 -3.077 4.167 -0.5 4.167 C
2.077 4.167 4.167 2.077 4.167 -0.5 C
S
GR
GS
[0.75 0 0 0.75 342.375 402.03394] CT
0 GC
N
f268829457
f
GR
GS
[0.75 0 0 0.75 342.375 402.03394] CT
0 GC
10.0 ML
0.667 LW
N
4.167 -0.5 M
4.167 -3.077 2.077 -5.167 -0.5 -5.167 C
-3.077 -5.167 -5.167 -3.077 -5.167 -0.5 C
-5.167 2.077 -3.077 4.167 -0.5 4.167 C
2.077 4.167 4.167 2.077 4.167 -0.5 C
S
GR
GS
[0.75 0 0 0.75 344.625 426.10408] CT
0 GC
N
f268829457
f
GR
GS
[0.75 0 0 0.75 344.625 426.10408] CT
0 GC
10.0 ML
0.667 LW
N
4.167 -0.5 M
4.167 -3.077 2.077 -5.167 -0.5 -5.167 C
-3.077 -5.167 -5.167 -3.077 -5.167 -0.5 C
-5.167 2.077 -3.077 4.167 -0.5 4.167 C
2.077 4.167 4.167 2.077 4.167 -0.5 C
S
GR
GS
[0.75 0 0 0.75 356.625 457.69622] CT
0 GC
N
f268829457
f
GR
GS
[0.75 0 0 0.75 356.625 457.69622] CT
0 GC
10.0 ML
0.667 LW
N
4.167 -0.5 M
4.167 -3.077 2.077 -5.167 -0.5 -5.167 C
-3.077 -5.167 -5.167 -3.077 -5.167 -0.5 C
-5.167 2.077 -3.077 4.167 -0.5 4.167 C
2.077 4.167 4.167 2.077 4.167 -0.5 C
S
GR
GS
[0.75 0 0 0.75 346.875 468.9792] CT
0 GC
N
f268829457
f
GR
GS
[0.75 0 0 0.75 346.875 468.9792] CT
0 GC
10.0 ML
0.667 LW
N
4.167 -0.5 M
4.167 -3.077 2.077 -5.167 -0.5 -5.167 C
-3.077 -5.167 -5.167 -3.077 -5.167 -0.5 C
-5.167 2.077 -3.077 4.167 -0.5 4.167 C
2.077 4.167 4.167 2.077 4.167 -0.5 C
S
GR
GS
[0.75 0 0 0.75 348.375 444.90905] CT
0 GC
N
f268829457
f
GR
GS
[0.75 0 0 0.75 348.375 444.90905] CT
0 GC
10.0 ML
0.667 LW
N
4.167 -0.5 M
4.167 -3.077 2.077 -5.167 -0.5 -5.167 C
-3.077 -5.167 -5.167 -3.077 -5.167 -0.5 C
-5.167 2.077 -3.077 4.167 -0.5 4.167 C
2.077 4.167 4.167 2.077 4.167 -0.5 C
S
GR
GS
[0.75 0 0 0.75 386.62498 448.66988] CT
0 GC
N
f268829457
f
GR
GS
[0.75 0 0 0.75 386.62498 448.66988] CT
0 GC
10.0 ML
0.667 LW
N
4.167 -0.5 M
4.167 -3.077 2.077 -5.167 -0.5 -5.167 C
-3.077 -5.167 -5.167 -3.077 -5.167 -0.5 C
-5.167 2.077 -3.077 4.167 -0.5 4.167 C
2.077 4.167 4.167 2.077 4.167 -0.5 C
S
GR
GS
[0.75 0 0 0.75 361.87502 402.78621] CT
0 GC
N
f268829457
f
GR
GS
[0.75 0 0 0.75 361.87502 402.78621] CT
0 GC
10.0 ML
0.667 LW
N
4.167 -0.5 M
4.167 -3.077 2.077 -5.167 -0.5 -5.167 C
-3.077 -5.167 -5.167 -3.077 -5.167 -0.5 C
-5.167 2.077 -3.077 4.167 -0.5 4.167 C
2.077 4.167 4.167 2.077 4.167 -0.5 C
S
GR
GS
[0.75 0 0 0.75 344.625 387.74232] CT
0 GC
N
f268829457
f
GR
GS
[0.75 0 0 0.75 344.625 387.74232] CT
0 GC
10.0 ML
0.667 LW
N
4.167 -0.5 M
4.167 -3.077 2.077 -5.167 -0.5 -5.167 C
-3.077 -5.167 -5.167 -3.077 -5.167 -0.5 C
-5.167 2.077 -3.077 4.167 -0.5 4.167 C
2.077 4.167 4.167 2.077 4.167 -0.5 C
S
GR
GS
[0.75 0 0 0.75 345.37498 374.95505] CT
0 GC
N
f268829457
f
GR
GS
[0.75 0 0 0.75 345.37498 374.95505] CT
0 GC
10.0 ML
0.667 LW
N
4.167 -0.5 M
4.167 -3.077 2.077 -5.167 -0.5 -5.167 C
-3.077 -5.167 -5.167 -3.077 -5.167 -0.5 C
-5.167 2.077 -3.077 4.167 -0.5 4.167 C
2.077 4.167 4.167 2.077 4.167 -0.5 C
S
GR
GS
[0.75 0 0 0.75 366.375 371.19408] CT
0 GC
N
f268829457
f
GR
GS
[0.75 0 0 0.75 366.375 371.19408] CT
0 GC
10.0 ML
0.667 LW
N
4.167 -0.5 M
4.167 -3.077 2.077 -5.167 -0.5 -5.167 C
-3.077 -5.167 -5.167 -3.077 -5.167 -0.5 C
-5.167 2.077 -3.077 4.167 -0.5 4.167 C
2.077 4.167 4.167 2.077 4.167 -0.5 C
S
GR
GS
[0.75 0 0 0.75 382.875 334.33658] CT
0 GC
N
f268829457
f
GR
GS
[0.75 0 0 0.75 382.875 334.33658] CT
0 GC
10.0 ML
0.667 LW
N
4.167 -0.5 M
4.167 -3.077 2.077 -5.167 -0.5 -5.167 C
-3.077 -5.167 -5.167 -3.077 -5.167 -0.5 C
-5.167 2.077 -3.077 4.167 -0.5 4.167 C
2.077 4.167 4.167 2.077 4.167 -0.5 C
S
GR
GS
[0.75 0 0 0.75 396.37502 336.59322] CT
0 GC
N
f268829457
f
GR
GS
[0.75 0 0 0.75 396.37502 336.59322] CT
0 GC
10.0 ML
0.667 LW
N
4.167 -0.5 M
4.167 -3.077 2.077 -5.167 -0.5 -5.167 C
-3.077 -5.167 -5.167 -3.077 -5.167 -0.5 C
-5.167 2.077 -3.077 4.167 -0.5 4.167 C
2.077 4.167 4.167 2.077 4.167 -0.5 C
S
GR
GS
[0.75 0 0 0.75 384.37498 325.31023] CT
0 GC
N
f268829457
f
GR
GS
[0.75 0 0 0.75 384.37498 325.31023] CT
0 GC
10.0 ML
0.667 LW
N
4.167 -0.5 M
4.167 -3.077 2.077 -5.167 -0.5 -5.167 C
-3.077 -5.167 -5.167 -3.077 -5.167 -0.5 C
-5.167 2.077 -3.077 4.167 -0.5 4.167 C
2.077 4.167 4.167 2.077 4.167 -0.5 C
S
GR
GS
[0.75 0 0 0.75 410.62486 336.59322] CT
0 GC
N
f268829457
f
GR
GS
[0.75 0 0 0.75 410.62486 336.59322] CT
0 GC
10.0 ML
0.667 LW
N
4.167 -0.5 M
4.167 -3.077 2.077 -5.167 -0.5 -5.167 C
-3.077 -5.167 -5.167 -3.077 -5.167 -0.5 C
-5.167 2.077 -3.077 4.167 -0.5 4.167 C
2.077 4.167 4.167 2.077 4.167 -0.5 C
S
GR
GS
[0.75 0 0 0.75 407.62484 356.15022] CT
0 GC
N
f268829457
f
GR
GS
[0.75 0 0 0.75 407.62484 356.15022] CT
0 GC
10.0 ML
0.667 LW
N
4.167 -0.5 M
4.167 -3.077 2.077 -5.167 -0.5 -5.167 C
-3.077 -5.167 -5.167 -3.077 -5.167 -0.5 C
-5.167 2.077 -3.077 4.167 -0.5 4.167 C
2.077 4.167 4.167 2.077 4.167 -0.5 C
S
GR
GS
[0.75 0 0 0.75 406.87509 384.73354] CT
0 GC
N
f268829457
f
GR
GS
[0.75 0 0 0.75 406.87509 384.73354] CT
0 GC
10.0 ML
0.667 LW
N
4.167 -0.5 M
4.167 -3.077 2.077 -5.167 -0.5 -5.167 C
-3.077 -5.167 -5.167 -3.077 -5.167 -0.5 C
-5.167 2.077 -3.077 4.167 -0.5 4.167 C
2.077 4.167 4.167 2.077 4.167 -0.5 C
S
GR
GS
[0.75 0 0 0.75 427.87491 376.45943] CT
0 GC
N
f268829457
f
GR
GS
[0.75 0 0 0.75 427.87491 376.45943] CT
0 GC
10.0 ML
0.667 LW
N
4.167 -0.5 M
4.167 -3.077 2.077 -5.167 -0.5 -5.167 C
-3.077 -5.167 -5.167 -3.077 -5.167 -0.5 C
-5.167 2.077 -3.077 4.167 -0.5 4.167 C
2.077 4.167 4.167 2.077 4.167 -0.5 C
S
GR
GS
[0.75 0 0 0.75 418.87484 359.91118] CT
0 GC
N
f268829457
f
GR
GS
[0.75 0 0 0.75 418.87484 359.91118] CT
0 GC
10.0 ML
0.667 LW
N
4.167 -0.5 M
4.167 -3.077 2.077 -5.167 -0.5 -5.167 C
-3.077 -5.167 -5.167 -3.077 -5.167 -0.5 C
-5.167 2.077 -3.077 4.167 -0.5 4.167 C
2.077 4.167 4.167 2.077 4.167 -0.5 C
S
GR
GS
[0.75 0 0 0.75 419.62493 341.1063] CT
0 GC
N
f268829457
f
GR
GS
[0.75 0 0 0.75 419.62493 341.1063] CT
0 GC
10.0 ML
0.667 LW
N
4.167 -0.5 M
4.167 -3.077 2.077 -5.167 -0.5 -5.167 C
-3.077 -5.167 -5.167 -3.077 -5.167 -0.5 C
-5.167 2.077 -3.077 4.167 -0.5 4.167 C
2.077 4.167 4.167 2.077 4.167 -0.5 C
S
GR
GS
[0.75 0 0 0.75 429.37511 336.59322] CT
0 GC
N
f268829457
f
GR
GS
[0.75 0 0 0.75 429.37511 336.59322] CT
0 GC
10.0 ML
0.667 LW
N
4.167 -0.5 M
4.167 -3.077 2.077 -5.167 -0.5 -5.167 C
-3.077 -5.167 -5.167 -3.077 -5.167 -0.5 C
-5.167 2.077 -3.077 4.167 -0.5 4.167 C
2.077 4.167 4.167 2.077 4.167 -0.5 C
S
GR
GS
[0.75 0 0 0.75 406.87509 317.03615] CT
0 GC
N
f268829457
f
GR
GS
[0.75 0 0 0.75 406.87509 317.03615] CT
0 GC
10.0 ML
0.667 LW
N
4.167 -0.5 M
4.167 -3.077 2.077 -5.167 -0.5 -5.167 C
-3.077 -5.167 -5.167 -3.077 -5.167 -0.5 C
-5.167 2.077 -3.077 4.167 -0.5 4.167 C
2.077 4.167 4.167 2.077 4.167 -0.5 C
S
GR
GS
[0.75 0 0 0.75 410.62486 313.27516] CT
0 GC
N
f268829457
f
GR
GS
[0.75 0 0 0.75 410.62486 313.27516] CT
0 GC
10.0 ML
0.667 LW
N
4.167 -0.5 M
4.167 -3.077 2.077 -5.167 -0.5 -5.167 C
-3.077 -5.167 -5.167 -3.077 -5.167 -0.5 C
-5.167 2.077 -3.077 4.167 -0.5 4.167 C
2.077 4.167 4.167 2.077 4.167 -0.5 C
S
GR
GS
[0.75 0 0 0.75 413.62489 299.73572] CT
0 GC
N
f268829457
f
GR
GS
[0.75 0 0 0.75 413.62489 299.73572] CT
0 GC
10.0 ML
0.667 LW
N
4.167 -0.5 M
4.167 -3.077 2.077 -5.167 -0.5 -5.167 C
-3.077 -5.167 -5.167 -3.077 -5.167 -0.5 C
-5.167 2.077 -3.077 4.167 -0.5 4.167 C
2.077 4.167 4.167 2.077 4.167 -0.5 C
S
GR
GS
[0.75 0 0 0.75 247.87485 483.27093] CT
0 GC
N
f268829457
f
GR
GS
[0.75 0 0 0.75 247.87485 483.27093] CT
0 GC
10.0 ML
0.667 LW
N
4.167 -0.5 M
4.167 -3.077 2.077 -5.167 -0.5 -5.167 C
-3.077 -5.167 -5.167 -3.077 -5.167 -0.5 C
-5.167 2.077 -3.077 4.167 -0.5 4.167 C
2.077 4.167 4.167 2.077 4.167 -0.5 C
S
GR
GS
[0.75 0 0 0.75 261.37515 396.76859] CT
0 GC
N
f268829457
f
GR
GS
[0.75 0 0 0.75 261.37515 396.76859] CT
0 GC
10.0 ML
0.667 LW
N
4.167 -0.5 M
4.167 -3.077 2.077 -5.167 -0.5 -5.167 C
-3.077 -5.167 -5.167 -3.077 -5.167 -0.5 C
-5.167 2.077 -3.077 4.167 -0.5 4.167 C
2.077 4.167 4.167 2.077 4.167 -0.5 C
S
GR
GS
[0.75 0 0 0.75 312.37486 338.09758] CT
0 GC
N
f268829457
f
GR
GS
[0.75 0 0 0.75 312.37486 338.09758] CT
0 GC
10.0 ML
0.667 LW
N
4.167 -0.5 M
4.167 -3.077 2.077 -5.167 -0.5 -5.167 C
-3.077 -5.167 -5.167 -3.077 -5.167 -0.5 C
-5.167 2.077 -3.077 4.167 -0.5 4.167 C
2.077 4.167 4.167 2.077 4.167 -0.5 C
S
GR
showpage
%%Trailer
%%Pages: 1
%%EOF
